{
  "file_generated_by": "FlutterFire CLI",
  "purpose": "FirebaseAppID & ProjectID for this Firebase app in this directory",
  "GOOGLE_APP_ID": "1:646241481256:ios:241d120d8fceea31d17b1d",
  "FIREBASE_PROJECT_ID": "haandvaerker-app",
  "GCM_SENDER_ID": "646241481256"
}