<svg id="Ny_aftale_seddel" data-name="Ny aftale seddel" xmlns="http://www.w3.org/2000/svg" xmlns:xlink="http://www.w3.org/1999/xlink" width="40" height="44" viewBox="0 0 40 44">
  <defs>
    <clipPath id="clip-path">
      <rect id="Rectangle_856" data-name="Rectangle 856" width="40" height="44" fill="#003645"/>
    </clipPath>
  </defs>
  <g id="Group_7598" data-name="Group 7598" clip-path="url(#clip-path)">
    <path id="Path_1181" data-name="Path 1181" d="M28.773,186.326c-.617,1.355-1.286,1.765-2.614,1.6-.624,1.435-1.305,1.868-2.661,1.677-.035.086-.074.177-.109.27a2.078,2.078,0,0,1-3.051,1.136c-.635-.358-1.252-.751-1.746-1.049-.309.243-.555.45-.814.639a2.158,2.158,0,0,1-3.107-.869.612.612,0,0,0-.548-.385,2.722,2.722,0,0,1-1.567-.907.513.513,0,0,0-.381-.154,2.327,2.327,0,0,1-2.514-1.281.484.484,0,0,0-.45-.312,2.213,2.213,0,0,1-2-2.568,5.6,5.6,0,0,1,.373-.909l-1.255-.937c-.091.122-.166.242-.259.346a.628.628,0,0,1-.823.206c-1.742-.992-3.476-2-5.243-3.015l.713-1.239,4.576,2.629,5.416-9.376-4.57-2.64.7-1.234c.414.237.8.458,1.192.682l3.618,2.083c.81.466.865.618.5,1.558.567.244,1.132.5,1.714.719.094.034.3-.108.392-.22a8.532,8.532,0,0,1,3.858-2.886,6.562,6.562,0,0,1,4.634.145A17.306,17.306,0,0,0,27.5,171.37c.33.032.665,0,1.057,0-.113-.233-.221-.436-.313-.647a.681.681,0,0,1,.257-.962c1.844-.918,3.7-1.813,5.584-2.733l.619,1.288L29.787,170.7l4.735,9.689,4.871-2.286L40,179.362c-.158.092-.3.186-.45.259q-2.388,1.163-4.778,2.32c-.751.364-1.015.272-1.388-.479-.077-.155-.159-.307-.3-.581l-1.763,1.926c.864,1.411.909,2.277.205,3.093a2.141,2.141,0,0,1-2.753.426M25.4,182.565c.156.091.282.163.406.238q1.864,1.122,3.728,2.247c.289.175.616.252.845-.007a1.02,1.02,0,0,0,.24-.743,1.05,1.05,0,0,0-.482-.574q-5.584-3.553-11.185-7.08c-.093-.059-.2-.1-.307-.154a6.953,6.953,0,0,1-2.481,2.3,4.252,4.252,0,0,1-3.049.481,1.474,1.474,0,0,1-1.167-1.854c.31-1.049.732-2.064,1.114-3.118L11.4,173.5l-4.318,7.535L8.372,182a6.7,6.7,0,0,1,1.169-.734,2.13,2.13,0,0,1,2.343.8.455.455,0,0,0,.508.168,2.343,2.343,0,0,1,2.434,1.2.608.608,0,0,0,.563.371,2.286,2.286,0,0,1,1.955,1.874.408.408,0,0,0,.312.389,2.055,2.055,0,0,1,1.584,2.288.507.507,0,0,0,.232.356c.489.323.993.624,1.5.925A.692.692,0,0,0,22,189.456a.717.717,0,0,0-.341-1c-.519-.323-1.042-.641-1.589-.977l.712-1.215c.164.1.289.17.413.246.839.51,1.676,1.023,2.517,1.53a.619.619,0,0,0,.843-.051,1.017,1.017,0,0,0,.2-.709c-.023-.174-.241-.356-.414-.47-.532-.352-1.084-.673-1.651-1.02l.7-1.206c.155.087.281.153.4.227.852.517,1.69,1.06,2.564,1.535a.935.935,0,0,0,.8-.034.816.816,0,0,0,.231-.682.912.912,0,0,0-.433-.5c-.729-.46-1.477-.889-2.246-1.346l.705-1.214m7.071-3.146c.009.066.012.034,0,.01-1.05-2.155-2.1-4.307-3.146-6.465-.12-.248-.285-.216-.5-.218a18.3,18.3,0,0,1-2.225-.078,19.459,19.459,0,0,1-4.435-1.339,5.012,5.012,0,0,0-5.039.612,10.279,10.279,0,0,0-3.754,5.466c-.1.346.019.463.327.5a2.98,2.98,0,0,0,1.691-.354,5.789,5.789,0,0,0,2.3-2.247c.391-.638.708-.716,1.332-.322,1.426.9,2.854,1.793,4.27,2.708a.525.525,0,0,0,.671.022c.593-.443,1.18-.894,1.822-1.383l1.184.692-1.866,1.813,4.959,3.13,2.4-2.542m-20.784,7.537a2.741,2.741,0,0,0,.494-.414c.431-.609.843-1.233,1.253-1.857.274-.417.225-.6-.209-.9-.416-.288-.653-.262-.92.123-.416.6-.839,1.2-1.224,1.823a.763.763,0,0,0-.109.625,3.108,3.108,0,0,0,.715.6M9.375,185.34c.186-.121.352-.178.435-.294.35-.488.689-.985,1-1.5.209-.338.1-.561-.337-.855-.3-.2-.574-.22-.8.094-.306.429-.62.856-.884,1.311-.111.191-.211.519-.122.665a2.675,2.675,0,0,0,.7.574M14.4,188a2.869,2.869,0,0,0,.467-.392c.316-.423.614-.86.9-1.3.253-.385.184-.612-.247-.908-.409-.281-.626-.261-.89.108a14.855,14.855,0,0,0-.838,1.24c-.11.192-.21.52-.121.668A2.773,2.773,0,0,0,14.4,188m2.214,1.513c.162-.045.262-.042.295-.088a6.585,6.585,0,0,0,.885-1.319c.146-.37-.3-.576-.595-.69a.706.706,0,0,0-.6.161,2.448,2.448,0,0,0-.523.75c-.1.2-.2.517-.107.664a2.322,2.322,0,0,0,.641.522" transform="translate(0 -147.309)" fill="#003645"/>
    <path id="Path_1182" data-name="Path 1182" d="M78.184,17.7H76.792V6.381c-1.154,0-2.262,0-3.37,0a2.032,2.032,0,0,1-.563-.057,1.371,1.371,0,0,1-1-1.351c-.009-1.151-.009-2.3-.013-3.453,0-.013-.011-.025-.031-.067H51.478V18.4H50.069v-.466q0-8.168,0-16.337a1.412,1.412,0,0,1,1.6-1.6Q61.987.007,72.308,0a1.244,1.244,0,0,1,.966.407q2.253,2.3,4.534,4.57a1.216,1.216,0,0,1,.383.938c-.011,3.778-.007,7.556-.007,11.334Zm-4.9-12.756h2.328L73.284,2.6Z" transform="translate(-44.193 0)" fill="#003645"/>
    <path id="Path_1183" data-name="Path 1183" d="M117.02,50.235a7.084,7.084,0,1,1,7-7.108,7.037,7.037,0,0,1-7,7.108m0-12.753a5.669,5.669,0,1,0,5.6,5.641,5.682,5.682,0,0,0-5.6-5.641" transform="translate(-97.063 -31.808)" fill="#003645"/>
    <path id="Path_1184" data-name="Path 1184" d="M297.979,249.451l1.41-.7.626,1.279-1.41.7-.626-1.281" transform="translate(-263.009 -219.381)" fill="#003645"/>
    <path id="Path_1185" data-name="Path 1185" d="M141.521,60.866v3.671h3.509v.937h-3.509v3.7h-.994v-3.7h-3.509v-.937h3.509V60.866Z" transform="translate(-120.938 -53.678)" fill="#003645"/>
  </g>
</svg>
