<?xml version="1.0" standalone="no"?>
<!DOCTYPE svg PUBLIC "-//W3C//DTD SVG 20010904//EN"
 "http://www.w3.org/TR/2001/REC-SVG-20010904/DTD/svg10.dtd">
<svg version="1.0" xmlns="http://www.w3.org/2000/svg"
 width="212.000000pt" height="38.000000pt" viewBox="0 0 212.000000 38.000000"
 preserveAspectRatio="xMidYMid meet">

<g transform="translate(0.000000,38.000000) scale(0.100000,-0.100000)"
fill="#000000" stroke="none">
<path d="M12 368 c-17 -17 -17 -339 0 -356 17 -17 2079 -17 2096 0 17 17 17
339 0 356 -17 17 -2079 17 -2096 0z m1468 -87 c0 -5 -7 -14 -15 -21 -12 -10
-15 -10 -15 2 0 8 3 18 7 21 9 10 23 9 23 -2z m158 -33 c16 -16 15 -53 0 -66
-7 -5 -24 -12 -38 -14 -17 -2 -26 -10 -28 -25 -7 -51 -22 -19 -22 47 l0 70 38
0 c21 0 43 -5 50 -12z m-1304 -4 c26 -10 18 -25 -9 -18 -33 8 -33 -13 -1 -26
32 -12 40 -28 25 -46 -15 -18 -61 -14 -67 6 -5 13 -3 13 11 1 17 -14 47 -9 47
8 0 5 -13 14 -30 20 -20 6 -30 17 -30 30 0 25 24 37 54 25z m146 -13 c0 -14 5
-18 19 -14 26 7 46 -29 31 -56 -7 -13 -20 -19 -40 -19 -29 1 -30 2 -30 55 0
29 5 53 10 53 6 0 10 -9 10 -19z m350 0 c0 -14 5 -18 19 -14 26 7 46 -29 31
-56 -7 -13 -20 -19 -40 -19 -29 1 -30 2 -30 55 0 29 5 53 10 53 6 0 10 -9 10
-19z m445 -16 c16 0 20 -7 22 -40 1 -38 1 -38 -5 -7 -4 18 -10 33 -14 32 -5 0
-12 0 -17 0 -6 0 -12 -15 -14 -32 -2 -18 -4 -6 -4 27 -1 33 2 51 5 40 4 -11
16 -20 27 -20z m228 28 c4 -2 3 -13 -3 -23 -7 -13 -7 -27 1 -44 17 -36 -3 -56
-56 -56 -33 0 -44 4 -52 23 -22 44 -23 60 -9 83 13 18 24 22 63 22 26 0 51 -3
56 -5z m-297 -45 c-8 -13 -8 -23 2 -38 10 -17 10 -20 -3 -20 -10 0 -15 10 -15
29 0 17 -4 33 -10 36 -6 4 -5 11 2 19 18 19 39 -3 24 -26z m523 23 c7 -5 15
-29 18 -54 l5 -45 -40 0 c-48 -1 -72 19 -52 43 7 8 24 15 37 15 15 0 23 5 20
13 -2 7 -16 11 -32 9 -25 -3 -27 -1 -16 12 15 18 39 20 60 7z m66 -37 c10 -33
13 -36 19 -19 20 53 27 66 35 61 12 -8 -33 -128 -52 -140 -21 -14 -33 0 -17
19 10 12 9 24 -4 62 -19 56 -20 66 -4 61 6 -2 17 -22 23 -44z m-1403 4 c2 -18
8 -33 13 -33 6 0 11 15 13 33 5 46 22 40 22 -9 0 -39 -1 -40 -32 -37 -30 3
-33 6 -36 41 -2 20 1 37 7 37 5 0 11 -15 13 -32z m214 21 c4 -8 0 -9 -15 -4
-12 3 -21 2 -21 -4 0 -5 9 -13 21 -16 25 -8 22 -38 -5 -43 -10 -2 -23 2 -30 8
-8 9 -6 11 11 6 12 -4 24 -2 28 4 3 5 0 10 -8 10 -19 0 -40 26 -32 40 8 13 42
13 51 -1z m84 -6 c0 -13 -3 -14 -12 -5 -8 8 -15 9 -25 1 -17 -15 1 -51 22 -43
8 4 15 1 15 -6 0 -6 -11 -10 -27 -8 -29 3 -41 32 -29 64 8 21 56 18 56 -3z
m57 2 c-9 -7 -17 -24 -17 -39 0 -14 -4 -26 -10 -26 -5 0 -10 17 -10 39 0 35 2
39 27 39 24 0 25 -2 10 -13z m43 -25 c0 -22 -4 -40 -10 -40 -5 0 -10 18 -10
40 0 22 5 40 10 40 6 0 10 -18 10 -40z m168 28 c19 -19 14 -28 -14 -28 -16 0
-24 -5 -21 -12 2 -7 12 -12 21 -12 9 1 16 -3 16 -8 0 -5 -12 -8 -27 -6 -29 3
-41 32 -29 64 7 17 38 18 54 2z m82 -14 c0 -14 4 -23 10 -19 6 3 10 15 10 26
0 28 23 19 31 -12 l6 -24 8 28 c12 43 24 31 13 -13 -12 -47 -23 -51 -36 -12
l-10 27 -7 -27 c-9 -37 -21 -35 -34 3 -14 39 -14 49 -1 49 6 0 10 -12 10 -26z
m117 -36 c-2 -13 -4 -3 -4 22 0 25 2 35 4 23 2 -13 2 -33 0 -45z"/>
<path d="M1570 216 c0 -21 5 -26 26 -26 21 0 25 4 22 23 -2 14 -11 23 -25 25
-19 3 -23 -1 -23 -22z"/>
<path d="M484 195 c-4 -8 -4 -22 0 -30 7 -20 36 -8 36 15 0 23 -29 35 -36 15z"/>
<path d="M834 195 c-4 -8 -4 -22 0 -30 7 -20 36 -8 36 15 0 23 -29 35 -36 15z"/>
<path d="M1685 159 c-4 -6 -4 -13 -1 -16 8 -8 36 5 36 17 0 13 -27 13 -35 -1z"/>
<path d="M925 200 c-3 -5 1 -10 10 -10 9 0 13 5 10 10 -3 6 -8 10 -10 10 -2 0
-7 -4 -10 -10z"/>
</g>
</svg>
