<svg xmlns="http://www.w3.org/2000/svg" width="69.878" height="69.877" viewBox="0 0 69.878 69.877">
  <path id="blocked" d="M34.939,0a34.938,34.938,0,1,0,34.939,34.94A34.979,34.979,0,0,0,34.939,0Zm0,4.865a29.928,29.928,0,0,1,18.873,6.679L11.544,53.812a30.056,30.056,0,0,1,23.4-48.947Zm0,60.147A29.953,29.953,0,0,1,14.9,57.34L57.34,14.9a30.056,30.056,0,0,1-22.4,50.116Z" transform="translate(0 -0.001)" fill="#707070"/>
</svg>
