<?xml version="1.0" encoding="utf-8"?>
<!-- Generator: Adobe Illustrator 16.0.0, SVG Export Plug-In . SVG Version: 6.00 Build 0)  -->
<!DOCTYPE svg PUBLIC "-//W3C//DTD SVG 1.1//EN" "http://www.w3.org/Graphics/SVG/1.1/DTD/svg11.dtd">
<svg version="1.1" id="Layer_1" xmlns="http://www.w3.org/2000/svg" xmlns:xlink="http://www.w3.org/1999/xlink" x="0px" y="0px"
	 width="524px" height="618px" viewBox="1.5 0.5 524 618" enable-background="new 1.5 0.5 524 618" xml:space="preserve">
<path fill="#0590B9" d="M485.328,3H150.641c-19.774,0-35.859,16.085-35.859,35.859v31.078H40.672
	c-19.774,0-35.859,16.085-35.859,35.859v404.721c0.009,0.01,0.019,0.019,0.028,0.023c0.005,3.101,1.191,6.149,3.474,8.428
	l92.524,92.529c2.288,2.288,5.346,3.502,8.456,3.502h0.014h266.05c19.774,0,35.859-16.085,35.859-35.859v-31.078h74.109
	c19.774,0,35.859-16.085,35.859-35.859V362.789c0-6.603-5.351-11.953-11.953-11.953s-11.953,5.351-11.953,11.953v149.414
	c0,6.593-5.36,11.953-11.953,11.953h-74.109v-69.165h35.309c6.602,0,11.953-5.355,11.953-11.953c0-6.602-5.352-11.953-11.953-11.953
	h-35.309v-43.021h35.309c6.602,0,11.953-5.351,11.953-11.953s-5.352-11.953-11.953-11.953h-35.309v-43.055h35.309
	c6.602,0,11.953-5.351,11.953-11.953c0-6.602-5.352-11.953-11.953-11.953h-35.309v-43.017h35.309
	c6.602,0,11.953-5.356,11.953-11.953c0-6.603-5.352-11.953-11.953-11.953h-35.309v-43.06h35.309c6.602,0,11.953-5.351,11.953-11.953
	c0-6.597-5.352-11.953-11.953-11.953h-35.309v-57.51c0-4.193-0.729-8.213-2.055-11.953h88.117v161.367
	c0,6.602,5.351,11.953,11.953,11.953s11.953-5.351,11.953-11.953V38.859C521.188,19.085,505.103,3,485.328,3z M97.342,574.191
	l-51.721-51.721h34.907c9.268,0,16.813,7.545,16.813,16.813V574.191z M387.313,579.141c0,6.593-5.36,11.953-11.953,11.953H121.248
	v-51.81c0-22.454-18.266-40.72-40.72-40.72h-51.81V160.781h358.594v14.47v0.014v0.009v66.938v0.014v0.009v66.904v0.015v0.009v66.938
	v0.015v0.009V579.141z M387.313,105.797v31.078H28.719v-31.078c0-6.593,5.36-11.953,11.953-11.953h334.688
	C381.952,93.844,387.313,99.204,387.313,105.797z M375.359,69.938H138.688V38.859c0-6.593,5.36-11.953,11.953-11.953h334.688
	c6.593,0,11.953,5.36,11.953,11.953v31.078H375.359z"/>
<path fill="#0590B9" d="M336.619,430.945H78.432c-6.602,0-11.953,5.351-11.953,11.953s5.351,11.953,11.953,11.953h258.188
	c6.603,0,11.953-5.351,11.953-11.953S343.222,430.945,336.619,430.945z"/>
<path fill="#0590B9" d="M336.619,497.873H216.383c-6.602,0-11.953,5.352-11.953,11.953c0,6.598,5.351,11.953,11.953,11.953h120.236
	c6.603,0,11.953-5.355,11.953-11.953C348.572,503.225,343.222,497.873,336.619,497.873z"/>
<path fill="#0590B9" d="M78.432,387.891h182.934c6.602,0,11.953-5.351,11.953-11.953s-5.351-11.953-11.953-11.953H78.432
	c-6.602,0-11.953,5.351-11.953,11.953S71.83,387.891,78.432,387.891z"/>
<path fill="#0590B9" d="M336.619,297.061H78.432c-6.602,0-11.953,5.351-11.953,11.953c0,6.598,5.351,11.953,11.953,11.953h258.188
	c6.603,0,11.953-5.355,11.953-11.953C348.572,302.412,343.222,297.061,336.619,297.061z"/>
<path fill="#0590B9" d="M78.432,254.001h90.27c6.602,0,11.953-5.351,11.953-11.953c0-6.597-5.351-11.953-11.953-11.953h-90.27
	c-6.602,0-11.953,5.356-11.953,11.953C66.479,248.651,71.83,254.001,78.432,254.001z"/>
<path fill="#0590B9" d="M336.619,230.095H230.437c-6.602,0-11.953,5.356-11.953,11.953c0,6.603,5.351,11.953,11.953,11.953h106.182
	c6.603,0,11.953-5.351,11.953-11.953C348.572,235.451,343.222,230.095,336.619,230.095z"/>
<path fill="#0590B9" d="M336.619,363.984h-19.592c-6.603,0-11.953,5.351-11.953,11.953s5.351,11.953,11.953,11.953h19.592
	c6.603,0,11.953-5.351,11.953-11.953S343.222,363.984,336.619,363.984z"/>
<path fill="#0590B9" d="M509.234,297.047c-3.143,0-6.229,1.279-8.451,3.502s-3.502,5.309-3.502,8.451s1.279,6.229,3.502,8.451
	s5.309,3.502,8.451,3.502s6.229-1.279,8.451-3.502s3.502-5.309,3.502-8.451s-1.279-6.229-3.502-8.451
	S512.377,297.047,509.234,297.047z"/>
</svg>
