<svg xmlns="http://www.w3.org/2000/svg" width="63.44" height="47.487" viewBox="0 0 63.44 47.487">
  <g id="Group_2918" data-name="Group 2918" transform="translate(-1311.606 -2281)">
    <g id="Path_1018" data-name="Path 1018" transform="translate(1311.605 2281)" fill="none" stroke-linecap="round" stroke-linejoin="round" stroke-dasharray="59 50">
      <path d="M.819,0H52.024a.819.819,0,0,1,.819.819V35.639a.819.819,0,0,1-.819.819H.819A.819.819,0,0,1,0,35.639V.819A.819.819,0,0,1,.819,0Z" stroke="none"/>
      <path d="M 0.8192825317382813 3.814697265625e-06 L 36.28267669677734 3.814697265625e-06 L 40.93567276000977 3.814697265625e-06 L 52.02434539794922 3.814697265625e-06 C 52.47682571411133 3.814697265625e-06 52.84362411499023 0.3668022155761719 52.84362411499023 0.8192825317382813 C 52.84362411499023 0.8192825317382813 52.84362411499023 7.327154159545898 52.84362411499023 7.327154159545898 C 52.84362411499023 7.741363525390625 52.50783538818359 8.077154159545898 52.09362411499023 8.077154159545898 C 51.67941284179688 8.077154159545898 51.34362411499023 7.741363525390625 51.34362411499023 7.327154159545898 L 51.34362411499023 1.500003814697266 L 40.93567276000977 1.500003814697266 L 36.28267669677734 1.500003814697266 L 0.8192825317382813 1.500003814697266 C 0.4050750732421875 1.500003814697266 0.06928253173828125 1.164215087890625 0.06928253173828125 0.7500038146972656 C 0.06928253173828125 0.3357925415039063 0.4050750732421875 3.814697265625e-06 0.8192825317382813 3.814697265625e-06 C 0.8192825317382813 3.814697265625e-06 0.8192825317382813 3.814697265625e-06 0.8192825317382813 3.814697265625e-06 Z M -7.62939453125e-06 35.63872528076172 L 0.8192825317382813 35.63872528076172 L 0.8192825317382813 36.45800399780273 C 0.3668022155761719 36.45800399780273 -7.62939453125e-06 36.09120559692383 -7.62939453125e-06 35.63872528076172 Z M 0.7499923706054688 7.979513168334961 C 1.164203643798828 7.979513168334961 1.499992370605469 8.31529426574707 1.499992370605469 8.729513168334961 L 1.499992370605469 34.95800399780273 L 31.62299346923828 34.95800399780273 C 32.03720474243164 34.95800399780273 32.37299346923828 35.29379272460938 32.37299346923828 35.70800399780273 C 32.37299346923828 36.12221527099609 32.03720474243164 36.45800399780273 31.62299346923828 36.45800399780273 C 31.62299346923828 36.45800399780273 0.8192825317382813 36.45800399780273 0.8192825317382813 36.45800399780273 L 0.8192825317382813 35.63872528076172 L 0.8192825317382813 35.63872528076172 L 0.8192825317382813 35.63872528076172 L -7.62939453125e-06 35.63872528076172 L -7.62939453125e-06 8.729513168334961 C -7.62939453125e-06 8.31529426574707 0.335784912109375 7.979513168334961 0.7499923706054688 7.979513168334961 Z" stroke="none" fill="#000"/>
    </g>
    <g id="Group_2914" data-name="Group 2914" transform="translate(1313.379 2285.342) rotate(90)">
      <g id="Group_99" data-name="Group 99">
        <path id="Path_119" data-name="Path 119" d="M40.437,167.037a.879.879,0,1,0,.258.621A.884.884,0,0,0,40.437,167.037Z" transform="translate(-38.937 -166.78)"/>
      </g>
    </g>
    <line id="Line_139" data-name="Line 139" x2="18" transform="translate(1318.449 2289.221)" fill="none" stroke="#000" stroke-linecap="round" stroke-width="1.5"/>
    <line id="Line_140" data-name="Line 140" x2="13.051" transform="translate(1318.449 2294.5)" fill="none" stroke="#000" stroke-linecap="round" stroke-width="1.5"/>
    <line id="Line_141" data-name="Line 141" x2="5" transform="translate(1337.5 2294.5)" fill="none" stroke="#000" stroke-linecap="round" stroke-width="1.5"/>
    <line id="Line_145" data-name="Line 145" transform="translate(1334.449 2294.5)" fill="none" stroke="#000" stroke-linecap="round" stroke-width="1.5"/>
    <line id="Line_142" data-name="Line 142" x2="3.051" transform="translate(1318.449 2299.779)" fill="none" stroke="#000" stroke-linecap="round" stroke-width="1.5"/>
    <line id="Line_143" data-name="Line 143" x2="15.949" transform="translate(1324.5 2299.779)" fill="none" stroke="#000" stroke-linecap="round" stroke-width="1.5"/>
    <g id="Group_2915" data-name="Group 2915" transform="translate(-9412.051 -2621.721)">
      <line id="Line_142-2" data-name="Line 142" x2="11" transform="translate(10730.5 4931.5)" fill="none" stroke="#000" stroke-linecap="round" stroke-width="1.5"/>
      <line id="Line_143-2" data-name="Line 143" x2="3" transform="translate(10745.5 4931.5)" fill="none" stroke="#000" stroke-linecap="round" stroke-width="1.5"/>
    </g>
    <line id="Line_144" data-name="Line 144" x2="18" transform="translate(1318.449 2305.059)" fill="none" stroke="#000" stroke-linecap="round" stroke-width="1.5"/>
    <g id="Group_2913" data-name="Group 2913" transform="translate(-20.458 64.242)">
      <path id="Path_86" data-name="Path 86" d="M71.057,26.486a1.876,1.876,0,0,0,1.478-1.127,5.506,5.506,0,0,0,.1-1.948c.007-.657.44-.776.978-1.052a2.615,2.615,0,0,0,1.4-1.284,2.769,2.769,0,0,0-.3-1.985,2.325,2.325,0,0,1-.276-.821,1.042,1.042,0,0,1,.358-.6c.829-.948,1.635-1.9.776-3.142-.291-.418-.955-.843-1.1-1.329s.381-1.232.515-1.687A1.812,1.812,0,0,0,74.6,9.587a6.733,6.733,0,0,0-1.515-.933c-.567-.336-.448-.791-.425-1.388a2.549,2.549,0,0,0-.411-1.821,2.43,2.43,0,0,0-1.6-.709c-.515-.075-1.127-.007-1.373-.537-.53-1.142-.612-2.583-2.254-2.53-.59.022-1.172.321-1.754.3-.545-.022-.881-.784-1.2-1.157a2.041,2.041,0,0,0-1.4-.843,3.64,3.64,0,0,0-1.993.829c-.567.343-.784.254-1.329-.09a2.968,2.968,0,0,0-2.023-.717,2.308,2.308,0,0,0-1.329.918c-.343.418-.627,1.1-1.239,1.03a13.237,13.237,0,0,0-1.784-.284,1.789,1.789,0,0,0-1.59,1.12,14.857,14.857,0,0,1-.545,1.53c-.284.448-1.067.366-1.538.448a2.105,2.105,0,0,0-1.478.806,2.965,2.965,0,0,0-.3,1.844,2.544,2.544,0,0,1-.015.858c-.09.231-.343.336-.545.448a5.059,5.059,0,0,0-1.485.97,1.936,1.936,0,0,0-.216,1.993c.157.455.657,1.127.4,1.6-.321.6-.978.978-1.276,1.62a1.808,1.808,0,0,0,.231,1.859c.291.418,1.082.94,1.135,1.456a2.213,2.213,0,0,1-.276.873,4.515,4.515,0,0,0-.388,1.239,1.832,1.832,0,0,0,.963,1.739c.44.284,1.358.5,1.478,1.06.142.649-.112,1.344.052,2.008a1.857,1.857,0,0,0,1.553,1.358l-4.344,7.487a.756.756,0,0,0,.664,1.12l3.269-.082,1.261,2.672a.751.751,0,0,0,1.321.052l4.434-7.688a2.42,2.42,0,0,0,1.933,1.261,2.728,2.728,0,0,0,1.276-.485c.306-.187.717-.575,1.082-.6.343-.022.709.3.978.47a3.582,3.582,0,0,0,1.306.6c.948.142,1.582-.567,2.1-1.247l4.434,7.688a.749.749,0,0,0,.649.373h.007a.756.756,0,0,0,.649-.381L71.64,35.07c1.03.007,2.06.015,3.09.015a.757.757,0,0,0,.649-1.12ZM50.725,35.757l-.866-1.829a.741.741,0,0,0-.672-.425c-.814.015-1.627.045-2.441.06l3.919-6.792c.276.149.366.761.448,1.03a3.61,3.61,0,0,0,.56,1.2c.7.866,1.776.6,2.717.4Zm13.391-7.569a4.717,4.717,0,0,0-.866.94c-.149.194-.4.657-.664.7-.224.037-.56-.246-.739-.358a5.761,5.761,0,0,0-1.112-.612,2.587,2.587,0,0,0-2.329.552c-.187.119-.522.425-.761.418-.284-.007-.5-.4-.657-.6-.5-.649-.993-1.314-1.881-1.388a4.245,4.245,0,0,0-1.149.127,3.053,3.053,0,0,1-.918.164c-.508-.075-.6-1.187-.784-1.6a2.17,2.17,0,0,0-1.836-1.351c-.373,0-1.3-.045-1.426-.44a2.855,2.855,0,0,1,0-.873,4.2,4.2,0,0,0-.067-1.224,2.4,2.4,0,0,0-1.388-1.448,4.433,4.433,0,0,1-.843-.47c-.224-.2-.149-.358-.06-.627a4.118,4.118,0,0,0,.53-2.262,4.7,4.7,0,0,0-1.239-1.769c-.157-.194-.291-.336-.194-.582a2.948,2.948,0,0,1,.627-.739,2.378,2.378,0,0,0,.806-2.1,5.71,5.71,0,0,0-.4-1.135c-.082-.194-.3-.575-.224-.791s.448-.343.627-.44a9.045,9.045,0,0,0,.948-.53A2.123,2.123,0,0,0,49,7.9c.007-.463-.261-1.388.239-1.612.649-.284,1.418-.119,2.068-.455a2.6,2.6,0,0,0,1.157-1.724,2.723,2.723,0,0,1,.3-.814c.172-.224.4-.149.657-.1a3.778,3.778,0,0,0,2.314.082,4.714,4.714,0,0,0,1.426-1.448c.149-.187.284-.381.522-.358.276.022.627.343.851.485a2.42,2.42,0,0,0,2.194.463,4.839,4.839,0,0,0,.948-.508c.216-.134.522-.418.784-.44.463-.045.911.888,1.194,1.2a2.149,2.149,0,0,0,2.068.724c.411-.06,1.358-.485,1.657-.1.388.5.381,1.306.717,1.851a2.42,2.42,0,0,0,1.918.993,3.884,3.884,0,0,1,.881.149c.306.119.276.328.276.642A4.14,4.14,0,0,0,71.4,9.079a3.575,3.575,0,0,0,1.567,1.179c.187.1.567.246.634.47s-.172.6-.254.806a2.685,2.685,0,0,0-.209,2.344c.306.582,1.015.985,1.261,1.582.187.478-.672,1.082-.94,1.426a2.169,2.169,0,0,0-.336,2.262c.157.44.746,1.232.261,1.59A12.632,12.632,0,0,0,71.67,21.8a2.594,2.594,0,0,0-.53,2.045,2.528,2.528,0,0,1-.007.918c-.112.239-.4.246-.642.284a4.084,4.084,0,0,0-1.948.545,3.4,3.4,0,0,0-.948,1.8c-.06.194-.134.59-.321.7s-.612-.037-.821-.082a2.808,2.808,0,0,0-2.336.179C64.1,28.2,64.258,28.083,64.116,28.188Zm7.091,5.389h0a.759.759,0,0,0-.657.381L69.5,35.846,65.773,29.4c1.172.246,2.359.425,2.986-.836.239-.485.306-1.038.545-1.523a.641.641,0,0,1,.194-.269l3.934,6.815Z" transform="translate(1319.563 2226.137)"/>
      <path id="Path_87" data-name="Path 87" d="M133.938,96.675a9.338,9.338,0,1,1,9.338-9.338A9.347,9.347,0,0,1,133.938,96.675Zm0-17.261a7.923,7.923,0,1,0,7.923,7.923A7.933,7.933,0,0,0,133.938,79.415Z" transform="translate(1245.702 2154.439)"/>
      <path id="Path_89" data-name="Path 89" d="M122.246,412.893a.746.746,0,1,1,0-1.493h0a.746.746,0,1,1,0,1.493Z" transform="translate(1248.056 1845.41)"/>
    </g>
  </g>
</svg>
