<svg xmlns="http://www.w3.org/2000/svg" width="15.086" height="16.651" viewBox="0 0 15.086 16.651">
  <g id="Icon_feather-trash-2" data-name="Icon feather-trash-2" transform="translate(0.5 0.5)">
    <path id="Path_4222" data-name="Path 4222" d="M4.5,9H18.586" transform="translate(-4.5 -5.87)" fill="none" stroke="#19a3c0" stroke-linecap="round" stroke-linejoin="round" stroke-width="1"/>
    <path id="Path_4223" data-name="Path 4223" d="M18.456,6.13V17.086a1.565,1.565,0,0,1-1.565,1.565H9.065A1.565,1.565,0,0,1,7.5,17.086V6.13m2.348,0V4.565A1.565,1.565,0,0,1,11.413,3h3.13a1.565,1.565,0,0,1,1.565,1.565V6.13" transform="translate(-5.935 -3)" fill="none" stroke="#19a3c0" stroke-linecap="round" stroke-linejoin="round" stroke-width="1"/>
    <path id="Path_4224" data-name="Path 4224" d="M15,16.5v4.7" transform="translate(-9.522 -9.457)" fill="none" stroke="#19a3c0" stroke-linecap="round" stroke-linejoin="round" stroke-width="1"/>
    <path id="Path_4225" data-name="Path 4225" d="M21,16.5v4.7" transform="translate(-12.392 -9.457)" fill="none" stroke="#19a3c0" stroke-linecap="round" stroke-linejoin="round" stroke-width="1"/>
  </g>
</svg>
