<svg id="Group_7777" data-name="Group 7777" xmlns="http://www.w3.org/2000/svg" xmlns:xlink="http://www.w3.org/1999/xlink" width="54" height="62" viewBox="0 0 54 62">
  <defs>
    <clipPath id="clip-path">
      <rect id="Rectangle_1494" data-name="Rectangle 1494" width="54" height="62" fill="#19a3c0"/>
    </clipPath>
  </defs>
  <g id="Group_7776" data-name="Group 7776" clip-path="url(#clip-path)">
    <path id="Path_4758" data-name="Path 4758" d="M47.56,91.454a.939.939,0,0,1-.967-.908V75.5a13.263,13.263,0,0,1,.984-5.026.987.987,0,0,1,1.249-.524.892.892,0,0,1,.558,1.173,11.551,11.551,0,0,0-.857,4.377V90.546a.939.939,0,0,1-.967.908" transform="translate(-40.585 -61.426)" fill="#19a3c0"/>
    <path id="Path_4759" data-name="Path 4759" d="M76.751,30.027a.939.939,0,0,1-.967-.908V14.073a6.988,6.988,0,0,1,13.949,0v1.4a3.447,3.447,0,0,0,3.546,3.33h2.53V14.073c0-6.758-5.855-12.257-13.051-12.257A13.346,13.346,0,0,0,72.626,6.347a1.011,1.011,0,0,1-1.36.132.871.871,0,0,1-.14-1.278A15.324,15.324,0,0,1,82.758,0c8.263,0,14.985,6.313,14.985,14.073v5.642a.939.939,0,0,1-.967.908h-3.5a5.327,5.327,0,0,1-5.48-5.146v-1.4a5.051,5.051,0,0,0-10.081,0V29.119a.939.939,0,0,1-.967.908" transform="translate(-61.766)" fill="#19a3c0"/>
    <path id="Path_4760" data-name="Path 4760" d="M37.795,266.758H4.19A4.074,4.074,0,0,1,0,262.822V236.9a4.074,4.074,0,0,1,4.19-3.936H26.368a.91.91,0,1,1,0,1.816H4.19A2.194,2.194,0,0,0,1.934,236.9v25.918a2.194,2.194,0,0,0,2.256,2.119h33.6a2.194,2.194,0,0,0,2.256-2.119V236.9a2.194,2.194,0,0,0-2.256-2.119H30.881a.91.91,0,1,1,0-1.816h6.914a4.074,4.074,0,0,1,4.19,3.936v25.918a4.074,4.074,0,0,1-4.19,3.936" transform="translate(0 -204.758)" fill="#19a3c0"/>
    <path id="Path_4761" data-name="Path 4761" d="M85.12,265.847H63.092a.91.91,0,1,1,0-1.816H85.12a.91.91,0,1,1,0,1.816" transform="translate(-54.115 -232.059)" fill="#19a3c0"/>
    <path id="Path_4762" data-name="Path 4762" d="M87.254,327.157a3.218,3.218,0,0,1-2.216-.862l-2.553-2.4a.87.87,0,0,1,0-1.284,1.012,1.012,0,0,1,1.368,0l2.553,2.4a1.255,1.255,0,0,0,1.7,0l9.628-9.042a1.079,1.079,0,0,0,0-1.594l-1.7-1.592a1.257,1.257,0,0,0-1.7,0l-6.4,6.011a1.012,1.012,0,0,1-1.368,0l-3.227-3.031a1.256,1.256,0,0,0-1.7,0l-1.7,1.592a1.08,1.08,0,0,0,0,1.594l.634.6a.87.87,0,0,1,0,1.284,1.012,1.012,0,0,1-1.368,0l-.634-.6a2.822,2.822,0,0,1,0-4.163l1.7-1.592a3.279,3.279,0,0,1,4.432,0l2.544,2.389,5.717-5.369a3.284,3.284,0,0,1,4.432,0l1.7,1.592a2.818,2.818,0,0,1,0,4.162l-9.628,9.042a3.218,3.218,0,0,1-2.216.862" transform="translate(-67.653 -273.021)" fill="#19a3c0"/>
    <path id="Path_4763" data-name="Path 4763" d="M345.7,111.968a3.1,3.1,0,0,1-1.48-.375,2.8,2.8,0,0,1-1.383-1.693,2.623,2.623,0,0,1,.3-2.116,2.933,2.933,0,0,1,1.8-1.3l3.869-.973a3,3,0,0,1,3.637,1.972,2.779,2.779,0,0,1-2.1,3.416l-3.868.973a3.166,3.166,0,0,1-.773.1m3.873-4.736a1.1,1.1,0,0,0-.268.033l-3.868.973a1.023,1.023,0,0,0-.629.453.915.915,0,0,0-.1.738.977.977,0,0,0,.482.591,1.087,1.087,0,0,0,.786.1l3.869-.973a.969.969,0,0,0,.732-1.191,1.03,1.03,0,0,0-1-.721" transform="translate(-298.541 -92.65)" fill="#19a3c0"/>
    <path id="Path_4764" data-name="Path 4764" d="M344.96,187.2a3.188,3.188,0,0,1-.541-.046l-3.8-.654a3.08,3.08,0,0,1-.95-.328,2.7,2.7,0,0,1-.2-4.711,3.1,3.1,0,0,1,2.222-.448l3.8.654a2.972,2.972,0,0,1,1.909,1.159,2.637,2.637,0,0,1,.477,2.087,2.762,2.762,0,0,1-1.234,1.793,3.083,3.083,0,0,1-1.681.495m-3.81-4.416a1.074,1.074,0,0,0-.586.172.943.943,0,0,0,.07,1.643h0a1.072,1.072,0,0,0,.33.114l3.8.654a1.081,1.081,0,0,0,.775-.156.964.964,0,0,0,.43-.625.921.921,0,0,0-.166-.728,1.035,1.035,0,0,0-.665-.4l-3.8-.654a1.1,1.1,0,0,0-.189-.016" transform="translate(-294.579 -159.054)" fill="#19a3c0"/>
    <path id="Path_4765" data-name="Path 4765" d="M308.009,45.778a3.111,3.111,0,0,1-1.483-.372h0a2.922,2.922,0,0,1-.777-.609,2.676,2.676,0,0,1,.339-3.931l2.944-2.351a3.075,3.075,0,0,1,2.163-.656,3.018,3.018,0,0,1,2.023.973,2.663,2.663,0,0,1,.7,2.031,2.719,2.719,0,0,1-1.036,1.9l-2.944,2.351a3.089,3.089,0,0,1-1.926.663m-.516-1.945a1.092,1.092,0,0,0,1.189-.1l2.944-2.351a.948.948,0,0,0,.361-.663.929.929,0,0,0-.243-.708,1.052,1.052,0,0,0-.706-.34,1.074,1.074,0,0,0-.754.229l-2.944,2.351a.933.933,0,0,0-.118,1.371,1.021,1.021,0,0,0,.271.213" transform="translate(-265.712 -33.266)" fill="#19a3c0"/>
  </g>
</svg>
