<svg xmlns="http://www.w3.org/2000/svg" width="25.573" height="21.43" viewBox="0 0 25.573 21.43">
  <g id="Group_9000" data-name="Group 9000" transform="translate(1.978 0.181)">
    <g id="Group_9007" data-name="Group 9007" transform="translate(-1.977 -2)">
      <path id="Path_4180" data-name="Path 4180" d="M0,96.695a4.81,4.81,0,0,1,.54-1.432,3.2,3.2,0,0,1,1.795-1.384c.056-.016.109-.041.184-.069-.027-.066-.05-.128-.076-.189a2.944,2.944,0,0,1,.022-2.543,2.013,2.013,0,0,1,3.127-.673l.155.128c1.4-3.47,3.813-5.432,7.426-5.26,3.259.155,5.414,2.1,6.645,5.269a2.086,2.086,0,0,1,1.383-.613,2.149,2.149,0,0,1,2.174,2.157,2.758,2.758,0,0,1-.311,1.658,10.046,10.046,0,0,1,1.192.677,3.317,3.317,0,0,1,1.315,2.71c.007.317,0,.635,0,.952,0,.455-.19.661-.623.664-.832,0-1.665,0-2.5,0-.791,0-1.581,0-2.372,0a1.312,1.312,0,0,1-.344-.043.5.5,0,0,1-.353-.513.5.5,0,0,1,.384-.487,1.675,1.675,0,0,1,.346-.033q2.073,0,4.145,0h.288a2.415,2.415,0,0,0-1.693-2.8,2.686,2.686,0,0,0-.643-.071c-.657-.009-1.315,0-1.973-.008-.18,0-.26.051-.306.241a7.67,7.67,0,0,1-2.395,4.017,6.865,6.865,0,0,1-3.826,1.769A7.052,7.052,0,0,1,7.34,98.34c-.046-.051-.092-.1-.14-.151-.01-.011-.029-.013-.056-.023-.05.049-.107.1-.159.155q-2.657,2.813-5.315,5.626a1.047,1.047,0,0,0-.347.813.873.873,0,0,0,.534.794.789.789,0,0,0,.905-.169c.063-.057.121-.121.18-.183l2.844-3.008a1.806,1.806,0,0,1,.2-.195.466.466,0,0,1,.658.038.543.543,0,0,1,.037.7,1.257,1.257,0,0,1-.132.158q-1.482,1.571-2.967,3.14a1.8,1.8,0,0,1-2.348.383,2.052,2.052,0,0,1-.551-2.887,4.225,4.225,0,0,1,.333-.393q2.664-2.825,5.333-5.645a1,1,0,0,1,.164-.13l-1-2.508.057-.04A1.919,1.919,0,0,0,5.38,94.8c-.823.013-1.648,0-2.469.049a2.212,2.212,0,0,0-1.867,1.938c-.026.286-.039.572-.06.886.649,0,1.255,0,1.861,0a1.85,1.85,0,0,1,.347.029.5.5,0,0,1,.4.5.505.505,0,0,1-.384.514,1.206,1.206,0,0,1-.3.036c-.724,0-1.448-.007-2.172.006A.747.747,0,0,1,0,98.387ZM12.793,86.3a6.772,6.772,0,0,0-.051,13.519A6.77,6.77,0,0,0,12.793,86.3m-7.4,6.063c0-.1.007-.194,0-.29a1.145,1.145,0,0,0-1.068-1.087,1.11,1.11,0,0,0-1.1.979,2.769,2.769,0,0,0,0,.789,1.085,1.085,0,0,0,1.442.913,1.22,1.22,0,0,0,.732-1.3m16.985,0c0-.063,0-.152,0-.239a1.148,1.148,0,0,0-1.025-1.132,1.088,1.088,0,0,0-1.141.955,2.682,2.682,0,0,0,.026.94,1.052,1.052,0,0,0,1.568.7,1.227,1.227,0,0,0,.573-1.224" transform="translate(-0.001 -83.443)" fill="#003645"/>
      <path id="Path_4184" data-name="Path 4184" d="M114.636,315.821a.5.5,0,0,1-.5-.5.526.526,0,0,1,.484-.553.547.547,0,0,1,.51.538.521.521,0,0,1-.495.516" transform="translate(-106.997 -297.749)" fill="#003645"/>
      <path id="Path_4186" data-name="Path 4186" d="M123.59,128.1a5.723,5.723,0,1,1,5.382-5.747,5.56,5.56,0,0,1-5.382,5.747m3.441-2.855a4.829,4.829,0,0,0-.651-6.431,4.206,4.206,0,0,0-6.131.565,4.751,4.751,0,0,0-.106,5.846,4.294,4.294,0,0,1,1.87-1.646,2.665,2.665,0,0,1-.469-2.033,2.121,2.121,0,0,1,1.343-1.862,1.967,1.967,0,0,1,2.241.626,2.79,2.79,0,0,1,.325,2.692,3.5,3.5,0,0,1-.306.578,4.322,4.322,0,0,1,1.883,1.664m-.738.783a3.01,3.01,0,0,0-5.42,0,4.167,4.167,0,0,0,5.42,0m-3.763-4.095c0,.053,0,.105,0,.158a1.053,1.053,0,1,0,2.1.012c0-.141.006-.282,0-.422a1.057,1.057,0,0,0-1.43-.985,1.181,1.181,0,0,0-.666,1.236" transform="translate(-110.794 -112.776)" fill="#003645"/>
    </g>
  </g>
</svg>
