<?xml version="1.0" encoding="utf-8"?>
<!-- Generator: Adobe Illustrator 24.2.1, SVG Export Plug-In . SVG Version: 6.00 Build 0)  -->
<svg version="1.1" id="Layer_1" xmlns="http://www.w3.org/2000/svg" xmlns:xlink="http://www.w3.org/1999/xlink" x="0px" y="0px"
	 viewBox="0 0 120 120" style="enable-background:new 0 0 120 120;" xml:space="preserve">
<path d="M76,24.6H7c-3.8,0.1-6.9-3.1-7-7c-0.1-3.9,3-7.1,6.8-7.2c0.1,0,0.1,0,0.2,0h69c3.8-0.1,6.9,3.1,7,7c0.1,3.9-3,7.1-6.8,7.2
	C76.1,24.6,76,24.6,76,24.6z"/>
<path d="M76,109.6H7c-3.8,0.1-6.9-3.1-7-7c-0.1-3.9,3-7.1,6.8-7.2c0.1,0,0.1,0,0.2,0h69c3.8-0.1,6.9,3.1,7,7c0.1,3.9-3,7.1-6.8,7.2
	C76.1,109.6,76,109.6,76,109.6z"/>
<path d="M114.5,67.1H5.5c-3,0-5.5-3.2-5.4-7.1c0-3.9,2.4-7.1,5.4-7.1h109c3,0,5.5,3.2,5.5,7.1C120,63.9,117.6,67.1,114.5,67.1
	C114.5,67.1,114.5,67.1,114.5,67.1z"/>
</svg>
