<svg id="Group_9204" data-name="Group 9204" xmlns="http://www.w3.org/2000/svg" xmlns:xlink="http://www.w3.org/1999/xlink" width="52.17" height="52.212" viewBox="0 0 52.17 52.212">
  <defs>
    <clipPath id="clip-path">
      <rect id="Rectangle_2731" data-name="Rectangle 2731" width="52.17" height="52.212" fill="#19a3c0"/>
    </clipPath>
  </defs>
  <g id="Group_9203" data-name="Group 9203" clip-path="url(#clip-path)">
    <path id="Path_5365" data-name="Path 5365" d="M26.612,0c.343.081.688.154,1.028.245a7.719,7.719,0,0,1,3.541,2.017c1.444,1.439,2.89,2.875,4.32,4.328a1.127,1.127,0,0,0,.887.371q7.568-.018,15.136-.008h.642v22.6H15.677V18.664c-1.266-.364-2.437-.675-3.59-1.044A3.408,3.408,0,0,1,10.927,17a2.8,2.8,0,0,0-2.222-.444v2.616H0V0H8.667V1.623a3.572,3.572,0,0,0,2.283-.231C11.982.911,13.03.462,14.071,0ZM14.486,9.755a4.8,4.8,0,0,0,3.536,1.425A5.1,5.1,0,0,0,21.5,9.514c.155.191.271.361.415.505q2.283,2.293,4.573,4.58a1.747,1.747,0,1,0,2.5-2.432Q26.155,9.3,23.291,6.473a1.678,1.678,0,0,0-.463-.242l1.338-1.39c.6.615,1.185,1.233,1.8,1.814a1.063,1.063,0,0,0,.651.284c2.106.021,4.213.013,6.319.011a4.428,4.428,0,0,0,.45-.054c-1.091-1.083-2.133-2.082-3.135-3.121A6.452,6.452,0,0,0,25.328,1.73q-4.943.039-9.886,0a5.06,5.06,0,0,0-2.532.613,7.081,7.081,0,0,1-2.827,1.091c-.448.032-.9.005-1.356.005V14.788c.423,0,.814.029,1.2-.007a2.1,2.1,0,0,1,1.417.417,11.438,11.438,0,0,0,1.731.959,6.308,6.308,0,0,0,2.594.552c0-1.286-.013-2.523.008-3.76.006-.331-.138-.454-.406-.6-.646-.352-1.261-.759-1.937-1.174l1.153-1.421M50.446,8.73H28.129l-.095.131c.436.4.894.776,1.3,1.2a1.171,1.171,0,0,0,.937.38q6.728-.017,13.457-.007h.653a3.983,3.983,0,0,0,1.026,3.347,3.91,3.91,0,0,0,3.289.994v6.973a3.71,3.71,0,0,0-4.327,4.323h-20.9a3.946,3.946,0,0,0-1.011-3.311,4.079,4.079,0,0,0-3.271-1.02V14.775a3.754,3.754,0,0,0,3.628-1.447c-.457-.434-.881-.849-1.322-1.246A.385.385,0,0,0,21.161,12a6.752,6.752,0,0,1-3.718.912v14.9h33ZM30.933,15.042c2.618-1.534,4.646-1.426,6.247.266a4.4,4.4,0,0,1-4.8,7.113A4.3,4.3,0,0,1,29.833,19.8a4.56,4.56,0,0,1,.3-3.69c-1.97,1.243-3.523,1.069-5.088-.5-.321-.322-.632-.654-.979-1.013a5.446,5.446,0,0,1-3.155,1.86v3.6a5.342,5.342,0,0,1,4.268,4.28H42.687a5.347,5.347,0,0,1,4.281-4.283V16.477a5.347,5.347,0,0,1-4.28-4.259H31.075a3.644,3.644,0,0,1-.142,2.824M1.768,17.374H6.919V1.759H1.768Zm34.763.9a2.574,2.574,0,0,0-2.568-2.605,2.6,2.6,0,0,0-2.645,2.593,2.641,2.641,0,0,0,2.633,2.621,2.606,2.606,0,0,0,2.58-2.608" fill="#19a3c0"/>
    <path id="Path_5366" data-name="Path 5366" d="M80.272,324.809a3.877,3.877,0,0,1,2.922-2.342c3.088-.8,6.156-1.666,9.245-2.458a12.9,12.9,0,0,1,2.462-.322c.948-.054,1.9.009,2.854-.018a4.859,4.859,0,0,1,2.8.776c.609.384,1.235.743,1.94,1.165v-2.78h8.667v17.337H102.51V334.9c-.78.3-1.477.552-2.157.841a6.157,6.157,0,0,1-2.48.47q-5.76-.023-11.52,0a5.164,5.164,0,0,1-2.751-.77q-7.769-4.668-15.554-9.312a3.48,3.48,0,1,1,3.388-6.079c2.856,1.532,5.7,3.08,8.555,4.621.074.04.149.076.28.143m13.748,2c-3.287.865-6.485,1.772-9.718,2.533a3.334,3.334,0,0,1-4.1-2.376.724.724,0,0,0-.3-.364c-3.116-1.694-6.232-3.388-9.365-5.049a2.015,2.015,0,0,0-1.125-.175,1.657,1.657,0,0,0-1.414,1.411,1.743,1.743,0,0,0,.929,1.828c5.241,3.141,10.479,6.287,15.739,9.4a3.416,3.416,0,0,0,1.639.431c3.958.036,7.917.025,11.876.011a3.489,3.489,0,0,0,1.143-.2c.958-.342,1.893-.745,2.846-1.1a.468.468,0,0,0,.348-.525c-.01-2.871,0-5.743-.02-8.614a.773.773,0,0,0-.314-.55q-1.353-.86-2.75-1.65a2.259,2.259,0,0,0-.991-.365,24.333,24.333,0,0,0-4.574.068c-2.231.391-4.408,1.09-6.606,1.667q-2.042.535-4.078,1.094a1.768,1.768,0,0,0-1.33,2.1,1.663,1.663,0,0,0,2.056,1.265c2.19-.539,4.367-1.13,6.548-1.7,1.028-.269,2.055-.542,3.117-.823l.45,1.687m15.417-6.233h-5.165v13.859h5.165Z" transform="translate(-58.992 -283.995)" fill="#19a3c0"/>
  </g>
</svg>
