<svg xmlns="http://www.w3.org/2000/svg" width="29.959" height="30.094" viewBox="0 0 29.959 30.094">
  <path id="Path_4016" data-name="Path 4016" d="M6009.333-289.345h-10.664a.583.583,0,0,1-.583-.583.584.584,0,0,1,.583-.583h9.738a15.132,15.132,0,0,1-.821-1.283,9.78,9.78,0,0,1-1.239-5.327.582.582,0,0,1,.532-.568,5.021,5.021,0,0,0,1.363-.336,9.3,9.3,0,0,0-2.738-1.968,5.672,5.672,0,0,1-1.634,4.073.583.583,0,0,1-.418.21h-.031a.586.586,0,0,1-.408-.165l-3.288-3.2-3.287,3.2a.584.584,0,0,1-.437.164.582.582,0,0,1-.418-.21,5.666,5.666,0,0,1-1.637-4.075,10.733,10.733,0,0,0-5.658,7.758c-.165.745-.165,1.228,0,1.434s.588.291,1.286.291h3.815a.584.584,0,0,1,.583.583.584.584,0,0,1-.583.583h-3.815a2.731,2.731,0,0,1-2.195-.728,2.893,2.893,0,0,1-.229-2.416,13.61,13.61,0,0,1,2.539-5.566,10.526,10.526,0,0,1,4.758-3.407.692.692,0,0,1,.075-.027c.128-.046.259-.089.392-.13a7.594,7.594,0,0,1-2.416-5.032v-.916a1.933,1.933,0,0,1-1.164-1.771,1.93,1.93,0,0,1,1.245-1.8,7.211,7.211,0,0,1,1.713-3.953,7.239,7.239,0,0,1,3.6-2.254.874.874,0,0,1,.845-.653h2.113a.876.876,0,0,1,.855.694,7.193,7.193,0,0,1,5.167,6.166,1.929,1.929,0,0,1,1.244,1.8,1.93,1.93,0,0,1-1.162,1.769v.917a7.592,7.592,0,0,1-2.415,5.032c.136.042.27.088.4.135a.463.463,0,0,1,.045.016,10.524,10.524,0,0,1,4.348,2.909,8.822,8.822,0,0,0,1.893-1.5.581.581,0,0,1,.421-.181h0a.587.587,0,0,1,.422.181,7.5,7.5,0,0,0,4.35,2.375.581.581,0,0,1,.531.568,9.814,9.814,0,0,1-1.239,5.327c-.021.039-2.169,3.888-4.066,3.888A3.632,3.632,0,0,1,6009.333-289.345Zm.171-7.973c-.023.013-.044.024-.066.035a7.4,7.4,0,0,1-1.929.682,8.425,8.425,0,0,0,1.1,4.254c.69,1.289,2.305,3.273,3.037,3.273s2.349-1.985,3.038-3.272a8.453,8.453,0,0,0,1.1-4.255,8.78,8.78,0,0,1-4.142-2.241A9.8,9.8,0,0,1,6009.5-297.318Zm-14.325-3.162a3.972,3.972,0,0,0,.9,3.325l2.388-2.323c-.2-.053-.4-.118-.615-.2a7.811,7.811,0,0,1-1.879-1.032C5995.7-300.638,5995.437-300.562,5995.18-300.48Zm6.405.807c-.208.078-.41.143-.607.2l2.39,2.321a3.968,3.968,0,0,0,.9-3.324c-.26-.085-.525-.159-.8-.226A7.8,7.8,0,0,1,6001.585-299.673Zm-7.921-6.978c0,2.219,2.149,4.968,4.6,5.883a3.691,3.691,0,0,0,2.915,0c2.455-.912,4.61-3.661,4.61-5.885v-.757h-12.125Zm-1.164-2.686a.765.765,0,0,0,.764.763h12.924a.764.764,0,0,0,.761-.763.763.763,0,0,0-.761-.762h-8.928c-.028.031-.061.028-.1,0h-3.9A.764.764,0,0,0,5992.5-309.337Zm1.27-1.928h3.347a12.738,12.738,0,0,0,.741-4.857A6.11,6.11,0,0,0,5993.77-311.265Zm8.7,0h3.21a6.026,6.026,0,0,0-3.954-4.808A12.6,12.6,0,0,0,6002.473-311.266Zm-4.115,0h2.873a15.942,15.942,0,0,1-.671-5.568h-1.531A15.955,15.955,0,0,1,5998.358-311.266Zm-2.328,21.921a.583.583,0,0,1-.583-.583.584.584,0,0,1,.583-.583.585.585,0,0,1,.584.583.582.582,0,0,1-.582.583Zm15.023-2.975-1-.762a.581.581,0,0,1-.11-.816.583.583,0,0,1,.818-.11l.57.436,1.544-1.706a.582.582,0,0,1,.823-.041.583.583,0,0,1,.042.824l-1.9,2.1a.584.584,0,0,1-.433.191A.574.574,0,0,1,6011.053-292.32Z" transform="translate(-5987 318)"/>
</svg>
