<svg xmlns="http://www.w3.org/2000/svg" width="29.229" height="31.841" viewBox="0 0 29.229 31.841">
  <path id="Path_4019" data-name="Path 4019" d="M5988.866-286.781V-313.1a2.493,2.493,0,0,1-1.867-2.409,2.491,2.491,0,0,1,2.489-2.488,2.49,2.49,0,0,1,2.487,2.488,2.493,2.493,0,0,1-1.865,2.409v1.074h25.5a.622.622,0,0,1,.622.622v18.656a.622.622,0,0,1-.622.622h-2.8a.622.622,0,0,1-.622-.622.622.622,0,0,1,.622-.622h2.177v-6.219h-9.95v6.219h2.176a.621.621,0,0,1,.622.622.621.621,0,0,1-.622.622h-17.1v5.349a.622.622,0,0,1-.622.622A.622.622,0,0,1,5988.866-286.781Zm1.244-14.055h10.572a.622.622,0,0,1,.622.622v6.841h2.487v-6.841a.622.622,0,0,1,.622-.622h10.573v-2.487h-10.573a.623.623,0,0,1-.622-.622v-6.841H6001.3v6.841a.622.622,0,0,1-.622.622H5990.11Zm0,7.463h9.95v-6.219h-9.95Zm14.925-11.193h9.95v-6.219h-9.95Zm-14.925,0h9.95v-6.219h-9.95Zm-1.867-10.945a1.247,1.247,0,0,0,1.245,1.244,1.246,1.246,0,0,0,1.244-1.244,1.246,1.246,0,0,0-1.244-1.245A1.247,1.247,0,0,0,5988.243-315.512Zm21.145,22.76a.622.622,0,0,1,.622-.622.622.622,0,0,1,.622.622.622.622,0,0,1-.622.622A.622.622,0,0,1,6009.388-292.752Z" transform="translate(-5987 318)"/>
</svg>
