<svg xmlns="http://www.w3.org/2000/svg" width="10.137" height="10.156" viewBox="0 0 10.137 10.156">
  <path id="Icon_feather-phone" data-name="Icon feather-phone" d="M12.8,10.228v1.453a.969.969,0,0,1-1.056.969,9.588,9.588,0,0,1-4.181-1.487A9.448,9.448,0,0,1,4.659,8.257a9.588,9.588,0,0,1-1.487-4.2A.969.969,0,0,1,4.136,3H5.589a.969.969,0,0,1,.969.833A6.221,6.221,0,0,0,6.9,5.195a.969.969,0,0,1-.218,1.022l-.615.615A7.752,7.752,0,0,0,8.971,9.739l.615-.615a.969.969,0,0,1,1.022-.218,6.221,6.221,0,0,0,1.361.339A.969.969,0,0,1,12.8,10.228Z" transform="translate(-2.917 -2.75)" fill="none" stroke="#19a3c0" stroke-linecap="round" stroke-linejoin="round" stroke-width="0.5"/>
</svg>
