<svg id="Group_9552" data-name="Group 9552" xmlns="http://www.w3.org/2000/svg" xmlns:xlink="http://www.w3.org/1999/xlink" width="37.38" height="38.766" viewBox="0 0 37.38 38.766">
  <defs>
    <clipPath id="clip-path">
      <rect id="Rectangle_2862" data-name="Rectangle 2862" width="37.38" height="38.766" fill="#003645"/>
    </clipPath>
  </defs>
  <g id="Group_9552-2" data-name="Group 9552" clip-path="url(#clip-path)">
    <path id="Path_5379" data-name="Path 5379" d="M19.7,0c.266.118.557.154.83.267.3.122.5.326.791.419L32.894.752a.809.809,0,0,1,.479.656,21.288,21.288,0,0,1,.009,3.251c-.041.342-.366.793-.72.793h-1.7v4.656c0,.4-1.338,2.614-1.478,3.289-.152.735.219,2.687-.308,3.1a.784.784,0,0,1-1.2-.364c-.208-.676.1-2-.051-2.751-.14-.688-1.57-2.859-1.57-3.348V5.451H21.781c-.086,0-1.017,1.038-1.375,1.008l-9.73,11.489c-.207.249-.074.582-.118.866a5.494,5.494,0,0,1-1.269,2.744l2.327,12.477c-.134,1.244.185,2.889,0,4.083-.049.308-.314.457-.525.648H.584c-.267-.175-.471-.3-.524-.648-.184-1.206.126-2.83,0-4.083L2.028,21.842c-.013-.336-.428-.659-.629-.966a5.031,5.031,0,0,1,3.74-7.72C8.644,9.844,12.024,6.373,15.431,2.951a5.072,5.072,0,0,0,.991-1.43A3.663,3.663,0,0,1,17.785.312L18.72,0Zm-.774,1.534a1.823,1.823,0,0,0,.5,3.608,1.823,1.823,0,0,0-.5-3.608m12.94.661H22.347c-.026.144.151.4.151.492V3.937h9.37ZM16.15,4.543,7.159,13.364a5.527,5.527,0,0,1,3.06,2.762l8.123-9.577A3.234,3.234,0,0,1,16.15,4.543m13.3.908H27.864V9.729c0,.325.772,1.274.756,1.7a10.147,10.147,0,0,0,.83-1.628Zm-24.5,9.257a3.613,3.613,0,0,0-2.7,2.445,3.494,3.494,0,1,0,2.7-2.445M1.718,33.314H9.954L7.875,22.637,6.41,23.1,6.4,26.912a.759.759,0,0,1-1.5,0L4.888,23.1a5.7,5.7,0,0,1-1.279-.351c-.086-.016-.126-.058-.194.043Zm8.388,3.937V34.942l-.113-.114H1.567v2.423Z" transform="translate(0)" fill="#003645"/>
    <path id="Path_5380" data-name="Path 5380" d="M269.4,270.2c-.522-.29-.554-.524-.528-1.1l1.435-12.152H267.7a1.1,1.1,0,0,1-.434-.4c-.165-.407.036-1.116.509-1.116H272.5V251.08c0-.405.608-.617.941-.647,1.536-.136,3.275.1,4.832.01.217-.041.725.4.725.561v4.429h4.8c.224,0,.573.531.562.788-.01.227-.362.726-.562.726h-2.532c0,.163-.012.328,0,.492.287,3.8,1.184,7.818,1.358,11.585.026.564.046.925-.528,1.173Zm8.086-18.247h-3.476v3.483h3.476Zm3.552,16.733-1.318-11.665-7.792-.076-1.47,11.74Z" transform="translate(-246.98 -231.432)" fill="#003645"/>
    <path id="Path_5381" data-name="Path 5381" d="M65.269,388.986a.761.761,0,1,1,.277,1.5.761.761,0,0,1-.277-1.5" transform="translate(-59.793 -359.517)" fill="#003645"/>
    <path id="Path_5382" data-name="Path 5382" d="M45.587,208.79c3.082-.487,3.76,4,.945,4.581-3.218.665-3.856-4.121-.945-4.581m.226,1.513a.827.827,0,0,0-.135,1.539.812.812,0,1,0,.135-1.539" transform="translate(-40.413 -192.948)" fill="#003645"/>
  </g>
</svg>
