<svg id="Fagenterprise" xmlns="http://www.w3.org/2000/svg" xmlns:xlink="http://www.w3.org/1999/xlink" width="51.726" height="45.283" viewBox="0 0 51.726 45.283">
  <defs>
    <clipPath id="clip-path">
      <rect id="Rectangle_1451" data-name="Rectangle 1451" width="51.726" height="45.283" fill="#19a3c0"/>
    </clipPath>
  </defs>
  <g id="Group_7363" data-name="Group 7363" clip-path="url(#clip-path)">
    <path id="Path_4547" data-name="Path 4547" d="M.71,124.086l-.156-.06A.835.835,0,0,1,0,123.236a3.8,3.8,0,0,1,1.663-3.186.231.231,0,0,1,.342.022c.091.111.068.226-.058.348a.223.223,0,0,0-.072.137c0,1,0,2,0,3.007a.32.32,0,0,0,.011.052h.9v-.174q0-1.68,0-3.36c0-.095,0-.163-.112-.216a.221.221,0,0,1,.029-.4c.21-.105.428-.194.643-.289l.149-.065a5.158,5.158,0,0,1-1.424-4.245H1.755a.854.854,0,0,1-.93-.924,1.825,1.825,0,0,1,.024-.428.8.8,0,0,1,.613-.621.167.167,0,0,0,.145-.161,4.483,4.483,0,0,1,.854-1.944c.016-.02.031-.041.048-.06a.237.237,0,0,1,.329-.048.235.235,0,0,1,.042.329c-.128.2-.268.387-.384.591a3.776,3.776,0,0,0-.435,1.248h8.084a4,4,0,0,0-2.663-3.157c-.1.412-.207.82-.294,1.234a1,1,0,0,1-.954.788,1.243,1.243,0,0,1-.688-.117.917.917,0,0,1-.5-.627c-.09-.382-.183-.764-.276-1.145-.011-.044-.026-.086-.042-.139a3.943,3.943,0,0,0-1.01.524c-.034.023-.065.05-.1.071a.231.231,0,0,1-.325-.054.224.224,0,0,1,.063-.323c.327-.2.662-.384.994-.573a.346.346,0,0,1,.085-.034.366.366,0,0,0,.277-.261.932.932,0,0,1,.6-.531,2.267,2.267,0,0,1,1.506-.028,1.01,1.01,0,0,1,.733.681c.012.041.074.078.121.1a4.559,4.559,0,0,1,2.758,2.8,5.548,5.548,0,0,1,.176.68.172.172,0,0,0,.148.159.813.813,0,0,1,.622.7,2.4,2.4,0,0,1,.013.443.846.846,0,0,1-.871.829c-.118,0-.235,0-.374,0,0,.1,0,.19,0,.28a6.391,6.391,0,0,1-.246,2.06,3.957,3.957,0,0,1-1.09,1.818c-.026.024-.049.051-.084.089l.216.092a7.55,7.55,0,0,1,1.9,1.074,3.748,3.748,0,0,1,1.394,2.964.828.828,0,0,1-.545.782l-.134.062Zm8.952-9.221H9.508c-.241,0-.482,0-.723,0-.217,0-.326-.084-.323-.24s.11-.23.317-.231H9c.513,0,1.025,0,1.537,0a.358.358,0,0,0,.388-.316,2.614,2.614,0,0,0,0-.429.348.348,0,0,0-.3-.307,1.347,1.347,0,0,0-.2-.01H1.8a1.535,1.535,0,0,0-.184.008.362.362,0,0,0-.322.336c-.006.071,0,.143,0,.215,0,.388.114.5.5.5H7.48a.791.791,0,0,1,.183.011.214.214,0,0,1,.182.231.211.211,0,0,1-.194.22,1.076,1.076,0,0,1-.184.01H2.549a.726.726,0,0,0-.015.106c.015.4.011.808.05,1.209a3.94,3.94,0,0,0,1.9,3.108,2.773,2.773,0,0,0,1.966.489A3.823,3.823,0,0,0,9.047,118a4.117,4.117,0,0,0,.611-2c.029-.369.005-.742.005-1.133m-.7,7.2v-1.9c0-.461,0-.455-.44-.621a.386.386,0,0,0-.405.049,3.212,3.212,0,0,1-3.805.131.811.811,0,0,0-.93-.062.2.2,0,0,0-.132.2c0,.685,0,1.371,0,2.056,0,.044,0,.088.008.146h1.16c.275,0,.374.06.376.226s-.1.234-.385.234H3.268v1.1H8.956v-1.1H5.719c-.2,0-.3-.079-.3-.227s.1-.232.295-.232H8.966M6.115,111.24c.4,0,.537-.113.63-.5.106-.441.207-.884.325-1.322a.3.3,0,0,0-.132-.368,1.046,1.046,0,0,0-.229-.123,1.816,1.816,0,0,0-1.073-.036,1.4,1.4,0,0,0-.359.165.284.284,0,0,0-.126.356c.116.439.217.881.322,1.323.093.391.237.506.642.506m3.33,12.378h.892a.417.417,0,0,0,.011-.065q0-1.5,0-2.991c0-.037-.01-.094-.035-.109-.28-.173-.563-.34-.868-.522Zm1.386,0c.2,0,.395.015.586,0a.391.391,0,0,0,.367-.431,3.343,3.343,0,0,0-.808-2.132c-.04-.048-.083-.093-.144-.16Zm-9.442-2.726a3.365,3.365,0,0,0-.923,2.365.35.35,0,0,0,.3.34,6.2,6.2,0,0,0,.621.035Z" transform="translate(0 -86.214)" fill="#19a3c0"/>
    <path id="Path_4548" data-name="Path 4548" d="M97.172,160.352l-.156-.06a.835.835,0,0,1-.555-.789,3.8,3.8,0,0,1,1.663-3.186.231.231,0,0,1,.342.022c.091.111.068.226-.058.348a.223.223,0,0,0-.072.137c0,1,0,2,0,3.007a.321.321,0,0,0,.011.052h.9v-.174q0-1.68,0-3.36c0-.095,0-.163-.112-.216a.221.221,0,0,1,.029-.4c.21-.105.428-.194.643-.289l.149-.065a5.158,5.158,0,0,1-1.424-4.245h-.313a.854.854,0,0,1-.93-.923,1.825,1.825,0,0,1,.024-.428.8.8,0,0,1,.613-.621.167.167,0,0,0,.145-.161,4.483,4.483,0,0,1,.854-1.944c.016-.02.031-.041.048-.06a.237.237,0,0,1,.329-.048.235.235,0,0,1,.042.329c-.128.2-.268.387-.384.591a3.776,3.776,0,0,0-.435,1.248h8.084a4,4,0,0,0-2.663-3.157c-.1.412-.207.821-.294,1.234a1,1,0,0,1-.954.788,1.243,1.243,0,0,1-.688-.117.917.917,0,0,1-.5-.627c-.09-.382-.183-.764-.276-1.145-.011-.044-.026-.086-.042-.139a3.944,3.944,0,0,0-1.01.524c-.034.023-.065.05-.1.071a.231.231,0,0,1-.325-.054.224.224,0,0,1,.063-.323c.327-.2.662-.384.994-.573a.345.345,0,0,1,.085-.034.366.366,0,0,0,.277-.261.932.932,0,0,1,.6-.531,2.267,2.267,0,0,1,1.506-.028,1.01,1.01,0,0,1,.733.681c.012.041.074.078.121.1a4.559,4.559,0,0,1,2.758,2.8,5.546,5.546,0,0,1,.176.68.172.172,0,0,0,.148.159.813.813,0,0,1,.622.7,2.4,2.4,0,0,1,.013.443.846.846,0,0,1-.871.829c-.118,0-.235,0-.374,0,0,.1,0,.19,0,.28a6.391,6.391,0,0,1-.246,2.06,3.958,3.958,0,0,1-1.09,1.818c-.026.024-.049.051-.084.089l.216.092a7.55,7.55,0,0,1,1.9,1.074,3.748,3.748,0,0,1,1.394,2.964.828.828,0,0,1-.545.782l-.134.062Zm8.952-9.221h-.154c-.241,0-.482,0-.723,0-.217,0-.326-.084-.323-.24s.11-.23.317-.231h.215c.513,0,1.025,0,1.537,0a.358.358,0,0,0,.388-.316,2.614,2.614,0,0,0,0-.429.348.348,0,0,0-.3-.307,1.345,1.345,0,0,0-.2-.01H98.262a1.537,1.537,0,0,0-.184.008.362.362,0,0,0-.322.336c-.006.071,0,.143,0,.215,0,.388.114.5.5.5h5.688a.792.792,0,0,1,.183.011.214.214,0,0,1,.182.231.211.211,0,0,1-.194.22,1.077,1.077,0,0,1-.184.01H99.011a.726.726,0,0,0-.015.106c.015.4.011.808.05,1.209a3.94,3.94,0,0,0,1.9,3.108,2.773,2.773,0,0,0,1.966.489,3.823,3.823,0,0,0,2.592-1.779,4.117,4.117,0,0,0,.611-2c.029-.369.005-.742.005-1.133m-.7,7.2v-1.9c0-.461,0-.455-.44-.621a.386.386,0,0,0-.405.049,3.212,3.212,0,0,1-3.805.131.811.811,0,0,0-.93-.062.2.2,0,0,0-.132.2c0,.685,0,1.371,0,2.056,0,.044,0,.088.008.146h1.16c.275,0,.374.06.376.226s-.1.234-.385.234H99.73v1.1h5.688v-1.1h-3.237c-.2,0-.3-.079-.3-.227s.1-.232.295-.232h3.254m-2.851-10.821c.4,0,.537-.113.63-.5.106-.441.207-.884.325-1.322a.3.3,0,0,0-.132-.368,1.046,1.046,0,0,0-.229-.123,1.816,1.816,0,0,0-1.073-.036,1.4,1.4,0,0,0-.359.165.284.284,0,0,0-.126.356c.116.439.217.881.322,1.323.093.391.237.506.642.506m3.33,12.378h.892a.417.417,0,0,0,.011-.065q0-1.5,0-2.991c0-.037-.01-.094-.035-.109-.28-.173-.563-.34-.868-.522Zm1.386,0c.2,0,.395.015.586,0a.391.391,0,0,0,.367-.431,3.343,3.343,0,0,0-.808-2.132c-.04-.048-.083-.093-.144-.16Zm-9.442-2.726a3.365,3.365,0,0,0-.924,2.365.35.35,0,0,0,.3.34,6.194,6.194,0,0,0,.621.035Z" transform="translate(-76.749 -115.069)" fill="#19a3c0"/>
    <path id="Path_4549" data-name="Path 4549" d="M193.9,125.788l-.156-.06a.835.835,0,0,1-.555-.789,3.8,3.8,0,0,1,1.663-3.186.231.231,0,0,1,.342.022c.091.111.068.226-.058.348a.223.223,0,0,0-.072.137c0,1,0,2,0,3.007a.315.315,0,0,0,.011.052h.9v-.173q0-1.68,0-3.36c0-.095,0-.163-.112-.216a.221.221,0,0,1,.029-.4c.21-.105.428-.194.643-.289l.149-.065a5.158,5.158,0,0,1-1.424-4.245h-.313a.854.854,0,0,1-.93-.923,1.826,1.826,0,0,1,.024-.428.8.8,0,0,1,.613-.621.167.167,0,0,0,.145-.161,4.483,4.483,0,0,1,.854-1.944c.016-.02.031-.041.048-.06a.237.237,0,0,1,.329-.048.235.235,0,0,1,.042.329c-.128.2-.268.387-.384.591a3.776,3.776,0,0,0-.435,1.248h8.084a4,4,0,0,0-2.663-3.157c-.1.412-.207.821-.294,1.234a1,1,0,0,1-.954.788,1.243,1.243,0,0,1-.688-.117.917.917,0,0,1-.5-.627c-.09-.382-.183-.764-.276-1.145-.011-.044-.026-.086-.042-.139a3.944,3.944,0,0,0-1.01.524c-.034.023-.065.05-.1.07a.231.231,0,0,1-.325-.054.224.224,0,0,1,.063-.323c.327-.2.662-.384.994-.573a.346.346,0,0,1,.085-.034.366.366,0,0,0,.277-.261.932.932,0,0,1,.6-.531,2.267,2.267,0,0,1,1.506-.028,1.01,1.01,0,0,1,.733.681c.012.041.074.078.121.1a4.559,4.559,0,0,1,2.758,2.8,5.551,5.551,0,0,1,.176.68.172.172,0,0,0,.148.159.813.813,0,0,1,.622.7,2.4,2.4,0,0,1,.013.443.846.846,0,0,1-.871.829c-.117,0-.235,0-.374,0,0,.1,0,.19,0,.28a6.39,6.39,0,0,1-.246,2.06,3.957,3.957,0,0,1-1.09,1.818c-.026.024-.049.051-.084.089l.216.092a7.55,7.55,0,0,1,1.9,1.074,3.748,3.748,0,0,1,1.394,2.964.828.828,0,0,1-.545.782l-.134.062Zm8.952-9.221h-.154c-.241,0-.482,0-.723,0-.217,0-.326-.084-.323-.24s.11-.23.317-.231h.215c.513,0,1.025,0,1.537,0a.358.358,0,0,0,.388-.316,2.614,2.614,0,0,0,0-.429.348.348,0,0,0-.3-.307,1.346,1.346,0,0,0-.2-.01h-8.624a1.535,1.535,0,0,0-.184.008.362.362,0,0,0-.322.336c-.006.071,0,.143,0,.215,0,.388.114.5.5.5h5.688a.791.791,0,0,1,.183.011.214.214,0,0,1,.182.231.211.211,0,0,1-.194.22,1.077,1.077,0,0,1-.184.01h-4.919a.724.724,0,0,0-.015.106c.015.4.011.808.05,1.209a3.94,3.94,0,0,0,1.9,3.108,2.773,2.773,0,0,0,1.966.489,3.823,3.823,0,0,0,2.592-1.779,4.117,4.117,0,0,0,.611-2c.029-.369.005-.742.005-1.133m-.7,7.2v-1.9c0-.461,0-.455-.44-.621a.386.386,0,0,0-.405.049,3.212,3.212,0,0,1-3.805.131.811.811,0,0,0-.93-.062.2.2,0,0,0-.132.2c0,.685,0,1.371,0,2.056,0,.044,0,.088.008.146h1.16c.275,0,.374.06.376.226s-.1.234-.385.234h-1.148v1.1h5.688v-1.1H198.9c-.2,0-.3-.079-.3-.227s.1-.232.295-.232h3.254M199.3,112.942c.4,0,.537-.113.63-.5.106-.441.207-.884.325-1.322a.3.3,0,0,0-.132-.368,1.046,1.046,0,0,0-.229-.123,1.816,1.816,0,0,0-1.073-.036,1.4,1.4,0,0,0-.359.165.284.284,0,0,0-.126.356c.116.439.217.881.322,1.323.093.391.237.506.642.506m3.33,12.378h.892a.417.417,0,0,0,.011-.065q0-1.5,0-2.991c0-.037-.01-.094-.035-.109-.28-.173-.563-.34-.868-.522Zm1.386,0c.2,0,.395.015.586,0a.391.391,0,0,0,.367-.431,3.343,3.343,0,0,0-.808-2.132c-.04-.048-.083-.093-.144-.16Zm-9.442-2.726a3.365,3.365,0,0,0-.923,2.365.35.35,0,0,0,.3.34,6.2,6.2,0,0,0,.621.035Z" transform="translate(-153.707 -87.569)" fill="#19a3c0"/>
    <path id="Path_4550" data-name="Path 4550" d="M75.381,26.865a.81.81,0,0,1-.465-.856c.016-.259,0-.521,0-.813H61.889a1.117,1.117,0,0,1-1.216-.855,1.983,1.983,0,0,1-.026-.572c.043-.7.1-1.395.149-2.092a.4.4,0,0,1,.4-.4.387.387,0,0,1,.384.437c-.037.7-.079,1.4-.136,2.092-.04.493.042.6.526.6h2.763v-.291c0-.612,0-1.224,0-1.836,0-.3.162-.479.407-.471s.379.175.381.468c0,.7,0,1.4,0,2.112.094.007.169.018.245.018.857,0,1.714,0,2.571,0a.29.29,0,0,0,.328-.212q.629-1.622,1.281-3.234a.306.306,0,0,0-.049-.354c-.334-.415-.655-.84-1-1.284-.153.11-.3.217-.445.319a.638.638,0,0,1-1.051-.423c-.182-.978-.347-1.958-.52-2.937-.01-.059-.027-.117-.049-.207-.466.1-.922.2-1.378.3-.774.173-1.548.349-2.322.522a1.559,1.559,0,0,0-1.305,1.44c-.047.452-.065.906-.1,1.359a3.458,3.458,0,0,1-.043.391.36.36,0,0,1-.409.321.346.346,0,0,1-.365-.369,13.691,13.691,0,0,1,.233-2.287,2.223,2.223,0,0,1,1.835-1.637c1.259-.282,2.517-.566,3.777-.845a1.93,1.93,0,0,0,.867-.645c.132-.126.011-.606-.135-.73a4.76,4.76,0,0,1-1.721-3.164c-.008-.069-.024-.138-.038-.217-.15-.035-.3-.062-.451-.107a1.854,1.854,0,0,1-.865-2.974.518.518,0,0,0,.108-.34c-.063-.7-.151-1.406-.22-2.11-.03-.3.11-.5.35-.517s.409.168.44.476c.064.633.14,1.265.211,1.9.433-.041.406.056.484-.43a4.748,4.748,0,0,1,2.255-3.4.683.683,0,0,1,.846.071A10.236,10.236,0,0,0,72.52,4.836a16.134,16.134,0,0,0,1.7.312c.533.076.693.189.831.713a5.192,5.192,0,0,1,.113.538c.062.4.059.4.479.445a13.313,13.313,0,0,0,.173-2.757A3.821,3.821,0,0,0,72.467.851a27.228,27.228,0,0,0-3.952,0A3.646,3.646,0,0,0,65.4,3.174c-.033.071-.058.146-.093.217a.383.383,0,0,1-.51.236.389.389,0,0,1-.221-.536A4.655,4.655,0,0,1,67.3.319,4.541,4.541,0,0,1,69.038,0c1,.007,1.994,0,2.99,0a4.7,4.7,0,0,1,4.564,3.938,8.564,8.564,0,0,1-.084,2.3c-.035.312-.084.623-.11.936a.356.356,0,0,0,.092.223,1.844,1.844,0,0,1-1.08,3.07.251.251,0,0,0-.239.266A4.721,4.721,0,0,1,73.5,13.863a.7.7,0,0,0-.022.919,1.95,1.95,0,0,0,1.079.573c1.1.223,2.193.5,3.292.734A.464.464,0,0,0,78.192,16c.631-.526,1.251-1.066,1.871-1.6a1.612,1.612,0,0,1,2.29-.011c.191.162.381.325.609.52.007-.149.01-.249.016-.349a.634.634,0,0,1,.63-.639c.454-.013.91-.014,1.364,0a.643.643,0,0,1,.634.693c0,.787.007,1.574,0,2.361a.429.429,0,0,0,.175.377c.278.226.537.476.818.7a2.351,2.351,0,0,1,.9,1.213v.63a1.406,1.406,0,0,0-.062.137,1.587,1.587,0,0,1-1.589,1.125h-.243c0,.272.01.516,0,.759a.392.392,0,1,1-.784-.01,2.427,2.427,0,0,1,0-.5,1.1,1.1,0,0,0-.488-1.107c-1.054-.862-2.071-1.771-3.106-2.664a.942.942,0,0,0-.1.063c-1.132.976-2.265,1.951-3.391,2.936a.434.434,0,0,0-.109.295c-.008.962,0,1.924,0,2.885v.575h1.59c0-1,0-1.98,0-2.959a.761.761,0,0,1,.86-.852q1.128,0,2.256,0c.593,0,.869.271.87.86,0,.892,0,1.784,0,2.676v.276h1.613c0-.229,0-.438,0-.646,0-.346.149-.538.4-.53s.387.2.389.523c0,.216,0,.432,0,.673.279,0,.531.015.781,0a1,1,0,0,1,1.111.68v1.312l-.42.472ZM68.406,3.713A3.842,3.842,0,0,0,66.572,6.7c-.075,1.088-.039,2.184-.044,3.277a4.9,4.9,0,0,0,.049.81,3.928,3.928,0,0,0,7.805-.21c.056-1.169.034-2.342.029-3.514,0-.294-.075-.587-.105-.882-.019-.188-.133-.227-.3-.256-.609-.109-1.223-.2-1.82-.358a11.189,11.189,0,0,1-3.783-1.857M75.425,24.4v-.316c0-.6,0-1.207,0-1.81,0-.306.155-.48.4-.473s.385.186.387.468c0,.367,0,.734,0,1.1v1.017H76.8V21.148c-.128,0-.24,0-.351,0a1.574,1.574,0,0,1-1.49-1.277,1.592,1.592,0,0,1,.592-1.584c.568-.487,1.133-.977,1.742-1.5l-3.181-.719c-.021.1-.037.154-.047.213-.173.979-.34,1.959-.52,2.937a.64.64,0,0,1-1.069.415c-.141-.1-.28-.2-.43-.306-.357.46-.7.9-1.037,1.347a.284.284,0,0,0-.027.234q.659,1.68,1.337,3.354a.253.253,0,0,0,.179.138c.961.009,1.922.006,2.926.006m.244-4.881.064.039a.764.764,0,0,0,.562.762.87.87,0,0,0,.88-.265Q79,18.478,80.826,16.9c.335-.289.452-.283.787.006q1.875,1.62,3.754,3.236a.8.8,0,1,0,1.06-1.192q-2.327-2.02-4.666-4.026a.787.787,0,0,0-1.1,0q-2.327,2-4.64,4.015a2.324,2.324,0,0,0-.356.574m11.045,6.547v-.513c0-.355,0-.355-.361-.355H76.07a.62.62,0,0,0-.208.008c-.053.02-.124.083-.127.129-.013.24-.006.481-.006.73Zm-4.323-4.692H80.035v3.018h2.356ZM68.449,14.569c.623.858,1.328,1.648,2.014,2.477.672-.778,1.324-1.529,1.97-2.285a1.037,1.037,0,0,0,.1-.263,5.03,5.03,0,0,1-4.085.071m4.484.835-1.887,2.188L72.8,18.881c.167-.957.328-1.865.482-2.773.073-.429.054-.454-.352-.7m-3.05,2.187-1.865-2.2c-.425.322-.429.323-.347.8.095.549.2,1.1.294,1.646.06.336.118.673.183,1.047l1.735-1.286m.59,4.192-1.033,2.6h2.066l-1.034-2.6m-.009-3.631-.929.69.939,1.21.934-1.207-.943-.694M65.72,7.623a1,1,0,0,0-.944,1.05.977.977,0,0,0,.944.984Zm9.512,2.045a1.027,1.027,0,0,0,0-2.047Zm8.559,5.057c-.063.526-.085,1.006.458,1.3a3.786,3.786,0,0,1,.553.463V14.725Z" transform="translate(-48.247 0)" fill="#19a3c0"/>
    <path id="Path_4551" data-name="Path 4551" d="M190.026,129.616l.42-.472v.472Z" transform="translate(-151.192 -102.752)" fill="#19a3c0"/>
    <path id="Path_4552" data-name="Path 4552" d="M103.386,56.721c-.356-.086-.714-.156-1.061-.262a.374.374,0,0,1-.259-.5.382.382,0,0,1,.526-.246,2.348,2.348,0,0,0,1.635,0,.387.387,0,0,1,.541.257.38.38,0,0,1-.3.494c-.349.1-.709.165-1.081.249" transform="translate(-81.189 -44.306)" fill="#19a3c0"/>
    <path id="Path_4553" data-name="Path 4553" d="M117.631,38.876c0,.1.007.21,0,.314a.39.39,0,0,1-.779.012,4.292,4.292,0,0,1,0-.628.381.381,0,0,1,.4-.366.374.374,0,0,1,.382.38c.007.1,0,.192,0,.288h0" transform="translate(-92.962 -30.4)" fill="#19a3c0"/>
    <path id="Path_4554" data-name="Path 4554" d="M96.8,38.889c0-.1-.007-.21,0-.314a.39.39,0,0,1,.775-.026,2.892,2.892,0,0,1,0,.679A.39.39,0,0,1,96.8,39.2c-.007-.1,0-.209,0-.314" transform="translate(-77.012 -30.407)" fill="#19a3c0"/>
  </g>
</svg>
