<svg xmlns="http://www.w3.org/2000/svg" width="62.759" height="35.057" viewBox="0 0 62.759 35.057">
  <g id="_2" data-name="2" transform="translate(-2767.87 -1603.5)">
    <path id="Path_4018" data-name="Path 4018" d="M5987.684-282.942a.686.686,0,0,1-.684-.684v-4.315a7.755,7.755,0,0,1,1.26-4.231,7.707,7.707,0,0,1,3.068-2.752.684.684,0,0,1,.39-.178,7.138,7.138,0,0,1,2.814-.575h2.054v-1.808c-.184-.164-.37-.336-.541-.513a7.844,7.844,0,0,1-1.917-3.363h-.281a2.738,2.738,0,0,1-2.739-2.738,2.706,2.706,0,0,1,.726-1.856,2.043,2.043,0,0,1-.726-1.568,2.036,2.036,0,0,1,.6-1.452,2.161,2.161,0,0,1,.793-.493,7.552,7.552,0,0,1,5.492-6.682A2.178,2.178,0,0,1,6000.01-318h2.738a2.191,2.191,0,0,1,2.02,1.849,7.551,7.551,0,0,1,5.492,6.682,2.052,2.052,0,0,1,1.39,1.945,2.039,2.039,0,0,1-.6,1.452c-.042.041-.082.082-.124.116a2.708,2.708,0,0,1,.726,1.856,2.738,2.738,0,0,1-2.738,2.738h-.28a7.858,7.858,0,0,1-2.459,3.876v1.808h2.054a7.128,7.128,0,0,1,2.815.575.67.67,0,0,1,.391.178,7.75,7.75,0,0,1,3.067,2.752,7.748,7.748,0,0,1,1.261,4.231v4.315a.687.687,0,0,1-.686.684Zm23.966-1.37h2.739v-3.629a6.549,6.549,0,0,0-2.739-5.265Zm-2.738-1.574v1.574h1.369v-9.62a5.636,5.636,0,0,0-1.369-.336V-290a.688.688,0,0,1-.686.686.688.688,0,0,1-.685-.686v-4.313h-1.759l-3.719,3.9v6.094h5.478v-1.574a.688.688,0,0,1,.685-.686A.688.688,0,0,1,6008.912-285.886Zm-13.7,0v1.574h5.479v-6.094l-3.717-3.9h-1.761V-290a.687.687,0,0,1-.684.686.687.687,0,0,1-.684-.686v-4.272a6,6,0,0,0-1.37.336v9.62h1.37v-1.574a.687.687,0,0,1,.684-.686A.687.687,0,0,1,5995.216-285.886Zm-6.846-2.055v3.629h2.738v-8.895A6.551,6.551,0,0,0,5988.37-287.941Zm9.585-7.326,3.424,3.6,3.423-3.6v-1.273a7.169,7.169,0,0,1-3.423.863,7.166,7.166,0,0,1-3.424-.863Zm-2.74-8.148a6.6,6.6,0,0,0,.118,1.227.022.022,0,0,1,.007.02,6.531,6.531,0,0,0,1.69,3.226,6.145,6.145,0,0,0,.691.623,5.933,5.933,0,0,0,3.658,1.273,5.893,5.893,0,0,0,3.649-1.273,6.476,6.476,0,0,0,2.383-3.849.025.025,0,0,0,.007-.02,6.18,6.18,0,0,0,.123-1.227v-2.054h-12.326Zm13.7,0c0,.227-.014.459-.034.686h.034a1.373,1.373,0,0,0,1.369-1.37,1.373,1.373,0,0,0-1.369-1.37Zm-16.434-.684a1.374,1.374,0,0,0,1.37,1.37h.034c-.021-.227-.034-.459-.034-.686v-2.054A1.374,1.374,0,0,0,5992.478-304.1Zm.2-3.91a.677.677,0,0,0-.2.486.687.687,0,0,0,.684.686H6009.6a.674.674,0,0,0,.486-.2.673.673,0,0,0,.2-.486.686.686,0,0,0-.685-.684h-16.434A.678.678,0,0,0,5992.676-308.01Zm1.212-1.568h14.981a6.173,6.173,0,0,0-4.067-5.128v3.074a.687.687,0,0,1-.686.684.686.686,0,0,1-.684-.684v-4.108c0-.425-.355-.891-.686-.891h-2.738c-.329,0-.684.466-.684.891v4.108a.687.687,0,0,1-.686.684.686.686,0,0,1-.685-.684v-3.074A6.189,6.189,0,0,0,5993.889-309.578Zm13.653,21.637a.688.688,0,0,1,.685-.684.688.688,0,0,1,.686.684.688.688,0,0,1-.686.686A.688.688,0,0,1,6007.542-287.941Zm-13.694,0a.687.687,0,0,1,.684-.684.688.688,0,0,1,.686.684.688.688,0,0,1-.686.686A.687.687,0,0,1,5993.848-287.941Z" transform="translate(-3219.13 1921.5)"/>
    <path id="Path_4028" data-name="Path 4028" d="M5987.684-282.942a.686.686,0,0,1-.684-.684v-4.315a7.755,7.755,0,0,1,1.26-4.231,7.707,7.707,0,0,1,3.068-2.752.684.684,0,0,1,.39-.178,7.138,7.138,0,0,1,2.814-.575h2.054v-1.808c-.184-.164-.37-.336-.541-.513a7.844,7.844,0,0,1-1.917-3.363h-.281a2.738,2.738,0,0,1-2.739-2.738,2.706,2.706,0,0,1,.726-1.856,2.043,2.043,0,0,1-.726-1.568,2.036,2.036,0,0,1,.6-1.452,2.161,2.161,0,0,1,.793-.493,7.552,7.552,0,0,1,5.492-6.682A2.178,2.178,0,0,1,6000.01-318h2.738a2.191,2.191,0,0,1,2.02,1.849,7.551,7.551,0,0,1,5.492,6.682,2.052,2.052,0,0,1,1.39,1.945,2.039,2.039,0,0,1-.6,1.452c-.042.041-.082.082-.124.116a2.708,2.708,0,0,1,.726,1.856,2.738,2.738,0,0,1-2.738,2.738h-.28a7.858,7.858,0,0,1-2.459,3.876v1.808h2.054a7.128,7.128,0,0,1,2.815.575.67.67,0,0,1,.391.178,7.75,7.75,0,0,1,3.067,2.752,7.748,7.748,0,0,1,1.261,4.231v4.315a.687.687,0,0,1-.686.684Zm23.966-1.37h2.739v-3.629a6.549,6.549,0,0,0-2.739-5.265Zm-2.738-1.574v1.574h1.369v-9.62a5.636,5.636,0,0,0-1.369-.336V-290a.688.688,0,0,1-.686.686.688.688,0,0,1-.685-.686v-4.313h-1.759l-3.719,3.9v6.094h5.478v-1.574a.688.688,0,0,1,.685-.686A.688.688,0,0,1,6008.912-285.886Zm-13.7,0v1.574h5.479v-6.094l-3.717-3.9h-1.761V-290a.687.687,0,0,1-.684.686.687.687,0,0,1-.684-.686v-4.272a6,6,0,0,0-1.37.336v9.62h1.37v-1.574a.687.687,0,0,1,.684-.686A.687.687,0,0,1,5995.216-285.886Zm-6.846-2.055v3.629h2.738v-8.895A6.551,6.551,0,0,0,5988.37-287.941Zm9.585-7.326,3.424,3.6,3.423-3.6v-1.273a7.169,7.169,0,0,1-3.423.863,7.166,7.166,0,0,1-3.424-.863Zm-2.74-8.148a6.6,6.6,0,0,0,.118,1.227.022.022,0,0,1,.007.02,6.531,6.531,0,0,0,1.69,3.226,6.145,6.145,0,0,0,.691.623,5.933,5.933,0,0,0,3.658,1.273,5.893,5.893,0,0,0,3.649-1.273,6.476,6.476,0,0,0,2.383-3.849.025.025,0,0,0,.007-.02,6.18,6.18,0,0,0,.123-1.227v-2.054h-12.326Zm13.7,0c0,.227-.014.459-.034.686h.034a1.373,1.373,0,0,0,1.369-1.37,1.373,1.373,0,0,0-1.369-1.37Zm-16.434-.684a1.374,1.374,0,0,0,1.37,1.37h.034c-.021-.227-.034-.459-.034-.686v-2.054A1.374,1.374,0,0,0,5992.478-304.1Zm.2-3.91a.677.677,0,0,0-.2.486.687.687,0,0,0,.684.686H6009.6a.674.674,0,0,0,.486-.2.673.673,0,0,0,.2-.486.686.686,0,0,0-.685-.684h-16.434A.678.678,0,0,0,5992.676-308.01Zm1.212-1.568h14.981a6.173,6.173,0,0,0-4.067-5.128v3.074a.687.687,0,0,1-.686.684.686.686,0,0,1-.684-.684v-4.108c0-.425-.355-.891-.686-.891h-2.738c-.329,0-.684.466-.684.891v4.108a.687.687,0,0,1-.686.684.686.686,0,0,1-.685-.684v-3.074A6.189,6.189,0,0,0,5993.889-309.578Zm13.653,21.637a.688.688,0,0,1,.685-.684.688.688,0,0,1,.686.684.688.688,0,0,1-.686.686A.688.688,0,0,1,6007.542-287.941Zm-13.694,0a.687.687,0,0,1,.684-.684.688.688,0,0,1,.686.684.688.688,0,0,1-.686.686A.687.687,0,0,1,5993.848-287.941Z" transform="translate(-3185.13 1921.5)"/>
  </g>
</svg>
