<svg id="wallet" xmlns="http://www.w3.org/2000/svg" xmlns:xlink="http://www.w3.org/1999/xlink" width="40.62" height="40.61" viewBox="0 0 40.62 40.61">
  <defs>
    <clipPath id="clip-path">
      <rect id="Rectangle_1603" data-name="Rectangle 1603" width="40.62" height="40.61" fill="#003645"/>
    </clipPath>
  </defs>
  <g id="Group_7580" data-name="Group 7580" clip-path="url(#clip-path)">
    <path id="Path_4666" data-name="Path 4666" d="M40.6,23.032a2.6,2.6,0,0,0-1.532-2.409.482.482,0,0,1-.3-.517c.009-1.705.006-3.41,0-5.116a3.731,3.731,0,0,0-1.35-3.039,3.316,3.316,0,0,0-1.668-.77.716.716,0,0,1-.579-.4c-1.538-2.71-3.12-5.4-4.625-8.124A4.5,4.5,0,0,0,27.284,0h-.952c-2.753,1.076-5.146,2.809-7.7,4.25-3.812,2.155-7.574,4.4-11.365,6.59a1.9,1.9,0,0,1-.849.232c-.818.031-1.638.036-2.455.006A3.723,3.723,0,0,0,.042,14.291c0,.023-.028.043-.042.065V37.278a4.309,4.309,0,0,0,.723,1.812,3.777,3.777,0,0,0,3.2,1.521q8.724,0,17.449,0,6.741,0,13.483,0a3.7,3.7,0,0,0,3.536-2.1,3.965,3.965,0,0,0,.379-1.844q.01-2.558,0-5.116a.451.451,0,0,1,.293-.478A2.616,2.616,0,0,0,40.6,28.663q.044-2.815,0-5.631M31.21,7.561,33.2,11.049H25.228L31.21,7.561m-.926-1.617c-.118.077-.221.152-.33.216q-4.07,2.371-8.145,4.733a1.44,1.44,0,0,1-.666.182c-1.037.019-2.074.008-3.111.008L18,11,29.379,4.371l.9,1.573M10.91,10.869q7.477-4.356,14.956-8.707a1.787,1.787,0,0,1,2.578.6c-.131.082-.239.154-.352.22q-6.776,3.945-13.557,7.882a1.687,1.687,0,0,1-.778.206c-1.011.023-2.022.01-3.141.01.158-.116.222-.172.294-.214M36.879,37.118a1.739,1.739,0,0,1-1.657,1.629,3.856,3.856,0,0,1-.475.021q-15.364,0-30.729-.013a2.965,2.965,0,0,1-1.352-.336,1.735,1.735,0,0,1-.827-1.653q0-1.269,0-2.537,0-9.6,0-19.191a1.887,1.887,0,0,1,1.43-2.056,2.678,2.678,0,0,1,.628-.056q15.483,0,30.967,0a1.831,1.831,0,0,1,2.04,1.917c.021,1.744.005,3.489,0,5.234,0,.063-.014.126-.026.229h-.439c-1.679,0-3.357-.011-5.036,0a5.523,5.523,0,0,0-.565,11.019c1.844.112,3.7.045,5.549.058h.5c0,1.956.026,3.845-.012,5.733m1.89-8.788c0,.862-.336,1.2-1.2,1.2-1.057,0-2.114,0-3.172,0V29.5c-1.11,0-2.222.043-3.329-.01a3.658,3.658,0,0,1-.824-7.135,5.323,5.323,0,0,1,1.361-.206c1.982-.022,3.965-.011,5.947-.009.873,0,1.214.346,1.215,1.23q0,2.478,0,4.956" fill="#003645"/>
    <path id="Path_4667" data-name="Path 4667" d="M274.909,221.958a1.837,1.837,0,1,0,1.854,1.826,1.838,1.838,0,0,0-1.854-1.826" transform="translate(-243.538 -197.949)" fill="#003645"/>
    <path id="Path_4668" data-name="Path 4668" d="M52.135,214.161a3.789,3.789,0,0,0-1.687-.352H48.493V220.1h1.77a3.567,3.567,0,0,0,2.484-.806,3.076,3.076,0,0,0,.89-2.4,3.364,3.364,0,0,0-.392-1.7,2.543,2.543,0,0,0-1.11-1.035M50.3,219.156H49.62v-4.413h.828a1.992,1.992,0,0,1,1.493.529,2.3,2.3,0,0,1,.515,1.656,1.939,1.939,0,0,1-2.158,2.228" transform="translate(-43.248 -190.682)" fill="#003645"/>
    <path id="Path_4670" data-name="Path 4670" d="M173.2,213.809h-1.277l-1.7,2.052-.37.458-.361.449v-2.96h-1.127V220.1h1.127v-2.317l.59-.467,1.867,2.783h1.295l-2.352-3.523Z" transform="translate(-155.805 -190.682)" fill="#003645"/>
    <path id="Path_4671" data-name="Path 4671" d="M173.2,213.809h-1.277l-1.7,2.052-.37.458-.361.449v-2.96h-1.127V220.1h1.127v-2.317l.59-.467,1.867,2.783h1.295l-2.352-3.523Z" transform="translate(-148.759 -190.682)" fill="#003645"/>
  </g>
</svg>
